<?xml version="1.0" standalone="no"?>
<!DOCTYPE svg PUBLIC "-//W3C//DTD SVG 1.1//EN" "http://www.w3.org/Graphics/SVG/1.1/DTD/svg11.dtd" >
<svg>
<metadata>
Created by FontForge 20110222 at Mon May 20 12:31:46 2013
 By Orthosie Webhosting
Converted by ALLTYPE
</metadata>
<defs>
<font id="FuturaCondensedNormalRegular" horiz-adv-x="205" >
  <font-face 
    font-family="FuturaCondensedNormalRegular"
    font-weight="5"
    font-stretch="normal"
    units-per-em="1000"
    panose-1="0 0 0 0 0 0 0 0 0 0"
    ascent="800"
    descent="-200"
    x-height="504"
    cap-height="756"
    bbox="-55 -220 1000 1008"
    underline-thickness="50"
    underline-position="-55"
    unicode-range="U+0020-F002"
  />
<missing-glyph 
 />
    <glyph glyph-name=".notdef" 
 />
    <glyph glyph-name="glyph1" horiz-adv-x="0" 
 />
    <glyph glyph-name="glyph2" 
 />
    <glyph glyph-name="space" unicode=" " 
 />
    <glyph glyph-name="space" unicode="&#xa0;" 
 />
    <glyph glyph-name="exclam" unicode="!" horiz-adv-x="252" 
d="M63 55q0 28 20.5 44t45.5 17h1.5h1.5q25 0 45 -15t20 -47t-20.5 -47.5t-45.5 -15.5q-25 -1 -46.5 15t-21.5 48v1zM71 181v575h110v-575h-110v0z" />
    <glyph glyph-name="quotedbl" unicode="&#x22;" horiz-adv-x="252" 
d="M24 535l-8 229h86l-15 -229h-63v0zM157 535l-7 229h86l-16 -229h-63v0z" />
    <glyph glyph-name="numbersign" unicode="#" horiz-adv-x="409" 
d="M-16 0l79 260h-102l15 55h103l39 126h-110l16 55h110l79 260h63l-79 -260h79l78 260h63l-78 -260h110l-16 -55h-110l-40 -126h111l-16 -55h-110l-79 -260h-63l79 260h-79l-79 -260h-63v0zM142 315h78l40 126h-79l-39 -126v0z" />
    <glyph glyph-name="dollar" unicode="$" horiz-adv-x="409" 
d="M110 150q12 -39 33.5 -57t44.5 -20h3.5h2.5q34 0 61.5 27.5t27.5 71.5v4.5v3.5q0 66 -34.5 99t-79.5 59q-4 2 -8 4.5t-7 4.5q-49 29 -89.5 70.5t-40.5 129.5v3v3v2.5v2.5q0 101 45 142t104 47v72h47v-71q8 -1 15.5 -1.5t15.5 -2.5q35 -6 67.5 -30t51.5 -77l-79 -46
q-8 33 -31 52t-49 21q-1 1 -3 1h-4q-30 0 -54 -22.5t-24 -68.5q0 -68 34 -99.5t77 -55.5q4 -2 7.5 -4t7.5 -4q47 -27 86.5 -67t39.5 -132q0 -124 -49.5 -172t-108.5 -48v-63h-47v63q-7 0 -14 1t-15 3q-35 8 -66.5 37t-46.5 68l79 49v0z" />
    <glyph glyph-name="percent" unicode="%" horiz-adv-x="551" 
d="M299 181q0 88 29.5 126t65.5 38q53 0 81.5 -35t28.5 -130q1 -8 1 -15.5v-15.5q0 -94 -29.5 -129.5t-73.5 -35.5q-47 0 -75 39t-28 157v1zM402 291q-21 -1 -33 -41t-12 -88v-1.5v-1.5q0 -46 11 -83.5t34 -37.5q25 0 36 35t11 79v5.5v5.5q-2 47 -14 87t-33 40v1zM55 0
l370 748h55l-362 -748h-63v0zM47 598q0 88 29.5 126.5t65.5 38.5q53 0 81.5 -35.5t28.5 -130.5q1 -8 1 -15.5v-15.5q0 -94 -29.5 -129.5t-73.5 -35.5q-47 0 -75 39t-28 157v1zM150 709q-21 -1 -33 -41t-12 -88v-1.5v-1.5q0 -46 11 -83.5t34 -37.5q25 0 36 35t11 79v5.5v5.5
q-2 47 -14 87t-33 40v1z" />
    <glyph glyph-name="ampersand" unicode="&#x26;" horiz-adv-x="496" 
d="M331 63q-23 -30 -48.5 -46t-50.5 -21q-8 -1 -15.5 -2t-14.5 -1q-67 0 -119 52t-52 119q0 15 1 29.5t4 28.5q8 36 29.5 74t68.5 89q-10 15 -18.5 31t-15.5 31q-12 29 -18 56.5t-6 53.5q0 61 35 102t109 41q72 0 108.5 -39.5t37.5 -94.5q0 -14 -2.5 -28t-7.5 -29
q-12 -36 -40 -71t-72 -61l102 -172l63 94l63 -55l-78 -118l78 -126h-102l-39 63v0zM291 126l-110 181q-30 -34 -42.5 -65.5t-13.5 -59.5q0 -45 27 -74t61 -30q3 0 6.5 0.5t7.5 0.5q17 3 33.5 14t30.5 32v1zM205 449q27 11 44.5 35t24.5 49q3 9 4 17t1 16q1 26 -12 44.5
t-39 18.5q-4 0 -8 -0.5t-8 -2.5q-20 -6 -36 -26t-16 -49q0 -11 3 -23t10 -25l32 -54v0z" />
    <glyph glyph-name="quotesingle" unicode="'" horiz-adv-x="213" 
d="M39 496l63 276l87 -32l-102 -268l-48 24v0z" />
    <glyph glyph-name="parenleft" unicode="(" horiz-adv-x="276" 
d="M126 -118q-36 83 -56 177t-26 191q-2 18 -2.5 36.5t-0.5 37.5q0 124 23.5 238.5t69.5 200.5l94 -31q-18 -40 -31.5 -80t-23.5 -79q-16 -64 -23.5 -127.5t-7.5 -124.5q0 -118 24 -225t62 -190l-102 -24v0z" />
    <glyph glyph-name="parenright" unicode=")" horiz-adv-x="276" 
d="M47 -87q24 59 41.5 118.5t27.5 120.5q8 48 12.5 95t4.5 93q0 110 -22 212.5t-64 186.5l103 25q41 -95 62.5 -201t21.5 -219q0 -72 -9 -146t-27 -148q-11 -42 -25 -84t-31 -84l-95 31v0z" />
    <glyph glyph-name="asterisk" unicode="*" horiz-adv-x="354" 
d="M165 559l-110 -63l-24 32l119 63l-119 63l24 31l110 -63v134h40v-134l110 71l24 -32l-119 -70l111 -63l-24 -32l-102 63v-126h-40v126v0z" />
    <glyph glyph-name="plus" unicode="+" horiz-adv-x="504" 
d="M213 0v220h-166v71h166v221h78v-221h166v-71h-166v-220h-78v0z" />
    <glyph glyph-name="comma" unicode="," 
d="M8 -157l63 275l86 -31l-102 -268l-47 24v0z" />
    <glyph glyph-name="hyphen" unicode="-" horiz-adv-x="244" 
d="M31 228v71h189v-71h-189v0z" />
    <glyph glyph-name="period" unicode="." 
d="M31 55q0 28 20.5 44t45.5 17h1.5h1.5q25 0 45 -15t20 -47t-20.5 -47.5t-45.5 -15.5q-25 -1 -46.5 15t-21.5 48v1z" />
    <glyph glyph-name="slash" unicode="/" horiz-adv-x="409" 
d="M-31 -94l385 937h87l-386 -937h-86v0z" />
    <glyph glyph-name="zero" unicode="0" horiz-adv-x="409" 
d="M31 370q0 223 43 316t131 93q97 0 135.5 -90.5t38.5 -256.5v-30.5t-1 -32.5q0 -148 -27.5 -262.5t-145.5 -114.5q-112 0 -143 114.5t-31 262.5v1zM205 693q-41 -1 -56 -91.5t-15 -232.5q-1 -14 -1 -27v-26q0 -134 22 -186t50 -52q41 0 56 71.5t15 219.5q0 160 -12 241.5
t-59 81.5v1z" />
    <glyph glyph-name="one" unicode="1" horiz-adv-x="409" 
d="M157 0v685h-70v87h173v-772h-103v0z" />
    <glyph glyph-name="two" unicode="2" horiz-adv-x="409" 
d="M31 0q10 20 20 41t20 41q69 140 128 256t69 189q2 10 2.5 19.5t0.5 19.5q0 39 -14 70.5t-52 31.5q-36 0 -45.5 -41t-9.5 -124l-103 1q0 100 20 172.5t138 78.5h7.5t7.5 1q86 0 122 -55.5t36 -134.5v-5v-6q0 -45 -18.5 -103.5t-46.5 -119.5q-13 -28 -26.5 -56t-28.5 -54
q-20 -39 -40.5 -74t-36.5 -62l189 1v-87h-339v0z" />
    <glyph glyph-name="three" unicode="3" horiz-adv-x="409" 
d="M260 370q71 -1 94.5 -47t23.5 -135q0 -15 -1.5 -31t-4.5 -32q-10 -53 -44.5 -97t-109.5 -44h-3h-3h-3.5h-3.5q-78 0 -122 39.5t-45 132.5v6t1 6v6v6l103 1v-7v-6q-1 -50 18 -74.5t42 -24.5h2.5h2.5q26 3 47.5 33t21.5 86q0 83 -23 116.5t-64 33.5l-39 1v86h39
q53 -1 66 34.5t13 106.5q0 48 -17 73.5t-38 26.5h-1.5h-1.5q-22 -2 -41 -34t-19 -98l-95 1q0 136 34.5 171t123.5 41q71 0 114 -41t43 -148q0 -112 -31.5 -147.5t-78.5 -41.5v1z" />
    <glyph glyph-name="four" unicode="4" horiz-adv-x="409" 
d="M228 0v205h-204v86l196 457h111v-465h47v-78h-47v-205h-103v0zM228 283v315l-126 -315h126v0z" />
    <glyph glyph-name="five" unicode="5" horiz-adv-x="386" 
d="M118 756h244v-87h-165l-24 -189q110 -1 150 -58t45 -126q1 -9 1.5 -18.5t0.5 -18.5q0 -148 -65 -207.5t-148 -59.5q-27 0 -45.5 4t-34.5 11q-9 4 -18.5 8t-19.5 8l32 87q16 -12 36 -21t41 -11h4.5h4.5q47 0 79 48.5t32 124.5q0 83 -33.5 113.5t-92.5 36.5q-6 0 -14 -1.5
t-17 -3.5t-17.5 -5t-14.5 -6l39 371v0z" />
    <glyph glyph-name="six" unicode="6" horiz-adv-x="409" 
d="M150 417q20 19 43 29.5t46 10.5q50 0 90.5 -50.5t40.5 -160.5v-4.5v-4.5v-5.5v-4.5q0 -142 -43 -192.5t-114 -50.5q-100 0 -133 70.5t-33 188.5v40.5t1 38.5q4 61 23.5 133t78.5 198l39 87h118l-157 -323v0zM205 370q-28 -1 -43 -45.5t-15 -98.5v-2.5v-3.5q1 -56 17 -103
t49 -47q29 0 44.5 46.5t15.5 102.5q1 56 -16 103t-52 47v1z" />
    <glyph glyph-name="seven" unicode="7" horiz-adv-x="409" 
d="M39 0l205 661h-213v87h339l-228 -748h-103v0z" />
    <glyph glyph-name="eight" unicode="8" horiz-adv-x="409" 
d="M134 409q-47 11 -67 50.5t-20 122.5q-1 6 -1 12v12q0 77 37.5 117t113.5 40q77 0 118 -36.5t47 -136.5q0 -71 -16.5 -117.5t-69.5 -64.5q35 -5 64.5 -51.5t29.5 -129.5q0 -112 -38 -173.5t-127 -61.5q-106 0 -136 64.5t-30 170.5q0 71 15 114.5t80 66.5v1zM197 362
q-31 -4 -46 -45t-15 -91v-2.5v-3.5q1 -53 18 -97.5t51 -44.5q29 0 43.5 43.5t14.5 95.5v1.5v1.5q0 52 -16 96t-46 45h-0.5h-1.5h-1.5h-0.5v1zM197 677q-25 -1 -37.5 -34.5t-12.5 -75.5v-4v-4q1 -42 14 -76.5t36 -34.5q30 0 45.5 35.5t16.5 78.5v1.5v1.5q0 42 -15 76.5
t-47 34.5v1z" />
    <glyph glyph-name="nine" unicode="9" horiz-adv-x="409" 
d="M260 323q-17 -18 -42 -29t-52 -11h-1.5h-1.5q-46 0 -85 46.5t-39 165.5q0 154 42.5 211t131.5 57q83 0 121 -60t44 -184q0 -118 -41 -245t-124 -274h-119l166 323v0zM205 677q-28 -1 -43 -46.5t-15 -101.5v-2.5v-3.5q1 -58 17 -106t49 -48q29 0 44.5 47.5t15.5 105.5
q1 58 -16 106t-52 48v1z" />
    <glyph glyph-name="colon" unicode=":" 
d="M39 55q0 28 20.5 44t45.5 17h1.5h1.5q25 0 45 -15t20 -47t-20.5 -47.5t-45.5 -15.5q-25 -1 -46.5 15t-21.5 48v1zM39 449q0 28 20.5 44t45.5 17h1.5h1.5q25 0 45 -15t20 -47t-20.5 -48.5t-45.5 -16.5q-25 -1 -46.5 15.5t-21.5 49.5v1z" />
    <glyph glyph-name="semicolon" unicode=";" 
d="M8 -165l63 275l86 -31l-102 -268l-47 24v0zM31 449q0 28 20.5 44t45.5 17h1.5h1.5q25 0 45 -15t20 -47t-20.5 -48.5t-45.5 -16.5q-25 -1 -46.5 15.5t-21.5 49.5v1z" />
    <glyph glyph-name="less" unicode="&#x3c;" horiz-adv-x="504" 
d="M110 252l339 -189v-71l-410 228v63l410 229v-71l-339 -189v0z" />
    <glyph glyph-name="equal" unicode="=" horiz-adv-x="504" 
d="M39 126v71h410v-71h-410v0zM39 315v71h410v-71h-410v0z" />
    <glyph glyph-name="greater" unicode="&#x3e;" horiz-adv-x="504" 
d="M370 260l-339 197v78l418 -236v-71l-418 -236v79l339 189v0z" />
    <glyph glyph-name="question" unicode="?" horiz-adv-x="339" 
d="M102 63q0 28 20.5 44t45.5 17h1.5h1.5q25 0 45 -15t20 -47t-20.5 -48t-45.5 -16q-25 -1 -46.5 15t-21.5 49v1zM118 181v228q2 -1 4.5 -1h4.5q2 -1 4 -1h4q64 0 74.5 35.5t10.5 103.5v10v10q0 71 -11.5 94.5t-35.5 23.5q-29 0 -38 -19.5t-9 -90.5l-95 1q0 106 32 151
t102 45h3.5h3.5h3h3q92 1 114 -60.5t23 -135.5v-16.5v-16.5q0 -82 -15.5 -140.5t-86.5 -63.5v-157h-95v0z" />
    <glyph glyph-name="at" unicode="@" horiz-adv-x="803" 
d="M535 543l16 48h71l-110 -331q-2 -9 -3.5 -16t-1.5 -13q0 -17 9 -25.5t23 -8.5t30.5 7t34.5 20q33 27 62.5 77t34.5 123v3.5v3.5v3.5v3.5q1 108 -79.5 189t-212.5 81q-11 0 -22 -1t-21 -2q-103 -16 -188.5 -98.5t-90.5 -221.5v-4v-4v-5v-4q0 -142 104 -228.5t231 -86.5
h4.5h4.5q69 1 133.5 31.5t112.5 95.5l71 1q-51 -98 -143 -146.5t-193 -48.5q-145 -1 -266.5 100.5t-121.5 306.5q0 177 120 277.5t273 100.5q9 0 18 -0.5t18 -1.5q117 -13 214.5 -99t97.5 -214v-12t-1 -12q-6 -104 -57 -173t-111 -97q-20 -10 -39.5 -15t-37.5 -5
q-30 0 -52.5 13t-33.5 41q-20 -19 -43.5 -30.5t-46.5 -16.5q-7 -1 -13.5 -1.5t-13.5 -0.5q-56 0 -99.5 41t-43.5 118q4 122 62.5 199t127.5 100q14 4 28 6.5t27 2.5q37 1 68 -17t49 -55v1zM425 551q-13 -1 -33 -7t-41 -22q-25 -18 -47.5 -53t-35.5 -92q-5 -19 -8 -36.5
t-3 -33.5q0 -40 16 -65.5t50 -29.5h3.5h3.5q4 0 8 0.5t8 1.5q42 10 80 62t55 113q2 9 4 17.5t3 17.5q2 16 3.5 29.5t1.5 23.5q0 44 -17.5 58.5t-50.5 14.5v1z" />
    <glyph glyph-name="A" unicode="A" horiz-adv-x="417" 
d="M0 0l165 756h79l165 -756h-110l-23 150h-150l-24 -150h-102v0zM260 236l-55 410l-63 -410h118v0z" />
    <glyph glyph-name="B" unicode="B" horiz-adv-x="417" 
d="M63 0v756h110q109 -1 149.5 -53t40.5 -126v-13.5t-1 -13.5q0 -59 -19.5 -107t-90.5 -66q77 -12 97.5 -64t20.5 -117q-6 -106 -42 -151t-131 -45h-134v0zM157 339v-252q6 -2 11.5 -2h10.5q47 0 68 27.5t21 91.5q0 71 -24.5 103t-70.5 32h-7.5t-8.5 -1v1zM157 417
q4 -2 7.5 -2h6.5q52 0 74.5 37t22.5 98q0 50 -25 84.5t-72 34.5h-3.5h-3.5t-3.5 -0.5t-3.5 -0.5v-251v0z" />
    <glyph glyph-name="C" unicode="C" horiz-adv-x="370" 
d="M354 94v-94q-14 -5 -29.5 -8.5t-30.5 -5.5q-7 -1 -14.5 -1.5t-15.5 -0.5q-85 0 -151 78.5t-66 298.5q0 232 58 314.5t152 82.5q21 0 43.5 -3t45.5 -8v-93q-19 7 -36.5 11.5t-33.5 4.5q-61 1 -93.5 -70t-32.5 -231q0 -155 36 -216.5t80 -71.5q6 -2 12.5 -2.5t12.5 -0.5
q18 -1 34 4t29 11v1z" />
    <glyph glyph-name="D" unicode="D" horiz-adv-x="465" 
d="M55 0v756h126q119 -1 177.5 -77t58.5 -294q0 -254 -63.5 -319.5t-188.5 -65.5h-110v0zM157 87q1 -1 2.5 -1h2.5h2.5h2.5q98 -1 122 77t26 172v25v25q0 132 -29.5 208t-105.5 77h-6t-5 -1q-3 0 -6 -0.5t-6 -0.5v-581v0z" />
    <glyph glyph-name="E" unicode="E" horiz-adv-x="346" 
d="M55 0v756h276v-95h-174v-220h150v-87h-150v-260h174v-94h-276v0z" />
    <glyph glyph-name="F" unicode="F" horiz-adv-x="339" 
d="M55 0v756h284v-95h-174v-228h150v-87h-150v-346h-110v0z" />
    <glyph glyph-name="G" unicode="G" horiz-adv-x="457" 
d="M236 315v87h189v-142q0 -143 -51 -209.5t-146 -66.5q-94 0 -141.5 96t-47.5 273v112q0 166 60 235.5t132 69.5q63 0 118 -44t68 -113l-94 -38q-8 41 -31.5 67t-50.5 28h-2h-2q-33 0 -60 -42t-27 -141v-188q0 -113 27 -168t59 -60h3.5h2.5q31 0 56 42.5t25 121.5v80h-87v0
z" />
    <glyph glyph-name="H" unicode="H" horiz-adv-x="472" 
d="M55 0v756h102v-291h150v291h102v-756h-102v378h-150v-378h-102v0z" />
    <glyph glyph-name="I" unicode="I" horiz-adv-x="220" 
d="M55 0v756h95v-756h-95v0z" />
    <glyph glyph-name="J" unicode="J" horiz-adv-x="299" 
d="M134 756h102v-583q0 -113 -39 -149.5t-96 -36.5q-23 0 -49 4t-52 9v110q22 -14 41 -20.5t35 -6.5q27 -1 42.5 17.5t15.5 55.5v600v0z" />
    <glyph glyph-name="K" unicode="K" horiz-adv-x="425" 
d="M55 0v756h102v-378l142 378h110l-157 -378l165 -378h-118l-142 370v-370h-102v0z" />
    <glyph glyph-name="L" unicode="L" horiz-adv-x="331" 
d="M55 0v756h102v-669h174v-87h-276v0z" />
    <glyph glyph-name="M" unicode="M" horiz-adv-x="559" 
d="M16 0l63 756h86l111 -551l94 551h95l70 -756h-102l-24 520l-94 -520h-71l-102 520l-24 -520h-102v0z" />
    <glyph glyph-name="N" unicode="N" horiz-adv-x="472" 
d="M55 0v756h102l174 -575l-24 268v307h102v-756h-86l-189 591l23 -268v-323h-102v0z" />
    <glyph glyph-name="O" unicode="O" horiz-adv-x="472" 
d="M228 756q101 -1 149 -97.5t48 -297.5q0 -165 -37 -271t-144 -106q-94 0 -149.5 81.5t-55.5 287.5q0 178 38.5 290t150.5 112v1zM228 661q-53 -1 -69.5 -83.5t-16.5 -200.5q0 -171 26.5 -239t67.5 -68q47 0 67 76.5t20 230.5t-24 218.5t-71 64.5v1z" />
    <glyph glyph-name="P" unicode="P" horiz-adv-x="386" 
d="M63 0v756h126q83 -1 140 -43t57 -155q0 -114 -45.5 -164.5t-100.5 -59.5q-7 -1 -14 -1.5t-14 -0.5q-12 0 -24 1.5t-23 4.5v-338h-102v0zM165 417q65 -1 85 27t26 98q0 50 -20 88.5t-76 38.5h-4h-3q-2 -1 -4 -1h-4v-251v0z" />
    <glyph glyph-name="Q" unicode="Q" horiz-adv-x="480" 
d="M331 16q-28 -15 -55.5 -22.5t-53.5 -7.5q-78 -1 -130.5 80.5t-52.5 278.5v16v16q0 148 36.5 267t160.5 119q95 0 146 -82.5t52 -261.5v-10.5v-10.5q-1 -5 -1 -10.5v-10.5q0 -69 -3 -115.5t-11 -87.5q-5 -23 -11 -46t-14 -50l63 -94l-71 -47l-55 79v0zM276 94l-63 95
l63 55l39 -55q3 29 5 53t2 47q1 17 1 34.5v37.5q0 130 -14 218.5t-73 88.5q-47 0 -66.5 -77.5t-19.5 -237.5q0 -124 16.5 -197.5t66.5 -73.5q10 0 20.5 3t22.5 8v1z" />
    <glyph glyph-name="R" unicode="R" horiz-adv-x="417" 
d="M55 0v756h134q101 -1 141 -46t40 -152q0 -76 -27.5 -126.5t-74.5 -62.5l141 -369h-110l-142 386v-386h-102v0zM157 417q65 5 84 37t19 96q0 60 -15 89.5t-67 29.5h-10.5t-10.5 -1v-251v0z" />
    <glyph glyph-name="S" unicode="S" horiz-adv-x="354" 
d="M39 134q12 -13 25 -22t26 -15q12 -6 25 -9t25 -3q35 0 59.5 23t28.5 64q1 5 1 9.5v8.5q0 55 -25 89t-59 65q-5 5 -11 10t-11 10q-40 36 -73.5 84t-33.5 134q0 15 3 34t10 39q15 40 51 74t102 35q25 0 54 -6t63 -19v-101q-26 16 -48.5 24t-41.5 8q-39 1 -61 -23.5
t-28 -53.5q-1 -5 -1.5 -9.5t-0.5 -9.5q0 -40 20 -70.5t49 -59.5q10 -9 20.5 -19t21.5 -20q40 -39 73.5 -89t36.5 -128q0 -79 -50.5 -140t-130.5 -62q-27 0 -57 9t-62 28v111v0z" />
    <glyph glyph-name="T" unicode="T" horiz-adv-x="323" 
d="M110 0v669h-118v87h331v-87h-110v-669h-103v0z" />
    <glyph glyph-name="U" unicode="U" horiz-adv-x="465" 
d="M63 756h94v-575q0 -48 15 -79.5t56 -31.5q36 0 57.5 26.5t21.5 91.5v568h95v-575q0 -113 -44.5 -159t-121.5 -46q-88 0 -130.5 46t-42.5 158v576v0z" />
    <glyph glyph-name="V" unicode="V" horiz-adv-x="386" 
d="M150 0l-150 756h110l79 -559l94 559h103l-158 -756h-78v0z" />
    <glyph glyph-name="W" unicode="W" horiz-adv-x="591" 
d="M291 559l-78 -559h-87l-134 756h102l79 -567l79 567h79l86 -559l71 559h103l-134 -756h-87l-79 559v0z" />
    <glyph glyph-name="X" unicode="X" horiz-adv-x="425" 
d="M16 0l149 386l-134 370h111l71 -236l7 -55l8 55l71 236h110l-149 -370l142 -386h-111l-71 244l-7 47l-8 -47l-71 -244h-118v0z" />
    <glyph glyph-name="Y" unicode="Y" horiz-adv-x="394" 
d="M150 0v315l-150 441h110l95 -354l15 118l63 236h111l-142 -441v-315h-102v0z" />
    <glyph glyph-name="Z" unicode="Z" horiz-adv-x="394" 
d="M8 0l236 669h-205v87h339l-228 -669h212v-87h-354v0z" />
    <glyph glyph-name="bracketleft" unicode="[" horiz-adv-x="299" 
d="M39 -110v874h221v-71h-134v-732h134v-71h-221v0z" />
    <glyph glyph-name="backslash" unicode="\" horiz-adv-x="252" 
d="M220 0l-275 835h86l276 -835h-87v0z" />
    <glyph glyph-name="bracketright" unicode="]" horiz-adv-x="299" 
d="M173 -24v717h-134v71h229v-858h-229v70h134v0z" />
    <glyph glyph-name="asciicircum" unicode="^" horiz-adv-x="504" 
d="M252 661l-134 -315h-79l181 418h63l182 -418h-79l-134 315v0z" />
    <glyph glyph-name="underscore" unicode="_" horiz-adv-x="504" 
d="M0 -181v79h504v-79h-504v0z" />
    <glyph glyph-name="grave" unicode="`" horiz-adv-x="283" 
d="M173 575l-102 134l63 47l86 -150l-47 -31v0z" />
    <glyph glyph-name="a" unicode="a" horiz-adv-x="378" 
d="M244 71q-15 -38 -41 -60.5t-55 -22.5h-3.5h-3.5q-38 4 -71 57t-39 174q-1 10 -1 19v18q0 134 35 192t76 63q3 1 5.5 1h5.5q29 0 55 -20t37 -52v64h95v-504h-95v71v0zM189 425q-41 -1 -52 -50t-11 -132v-16.5v-16.5q1 -53 11.5 -96.5t51.5 -43.5q4 0 8 1.5t8 4.5
q18 12 33 50.5t15 95.5v7.5v7.5q0 3 -0.5 6.5t-0.5 7.5q0 65 -11 119t-52 54v1z" />
    <glyph glyph-name="b" unicode="b" horiz-adv-x="378" 
d="M39 0v827h103v-378q0 4 4.5 11.5t12.5 15.5q14 13 36 24.5t46 11.5h4h4q39 -4 72 -59t33 -202q0 -133 -32.5 -191.5t-71.5 -67.5q-4 -1 -8.5 -1.5t-8.5 -0.5q-33 0 -59.5 23.5t-31.5 56.5v-70h-103v0zM197 425q-41 -1 -52 -50t-11 -132v-16.5v-16.5q1 -53 11.5 -96.5
t51.5 -43.5q4 0 8 1.5t8 3.5q18 11 33 47t15 93v14t-1 14v9.5v8.5q-1 61 -13 112t-50 51v1z" />
    <glyph glyph-name="c" unicode="c" horiz-adv-x="276" 
d="M268 102v-86q-25 -15 -47.5 -21t-42.5 -6q-73 0 -110 75t-37 187q0 155 46 207t105 52q22 0 43.5 -4t42.5 -11v-101q-12 11 -27 19t-31 8q-29 0 -52.5 -36.5t-23.5 -133.5q0 -86 20.5 -129t55.5 -43q13 0 27.5 5.5t30.5 16.5v1z" />
    <glyph glyph-name="d" unicode="d" horiz-adv-x="378" 
d="M244 71q-15 -38 -41 -60.5t-55 -22.5h-3.5h-3.5q-38 4 -71 57t-39 174q-1 10 -1 19v18q0 134 35 192t76 63q3 1 5.5 1h5.5q29 0 55 -20t37 -52v387h95v-827h-95v71v0zM189 425q-41 -1 -52 -50t-11 -132v-16.5v-16.5q1 -53 11.5 -96.5t51.5 -43.5q21 0 38.5 40t17.5 107
v16.5t-1 17.5q0 65 -7 119t-48 54v1z" />
    <glyph glyph-name="e" unicode="e" horiz-adv-x="362" 
d="M118 228q0 -71 17 -110.5t46 -39.5q24 0 39.5 19.5t15.5 66.5l95 1q-12 -113 -54.5 -143t-95.5 -30q-70 0 -113.5 61.5t-43.5 197.5q0 113 34.5 186.5t122.5 73.5q71 0 110.5 -59.5t40.5 -187.5v-18t-1 -19l-213 1v0zM118 299h118v6.5v6.5q1 56 -17 86t-40 30h-1.5h-1.5
q-22 -1 -40 -33t-18 -97v1z" />
    <glyph glyph-name="f" unicode="f" horiz-adv-x="252" 
d="M63 0v433h-47v71h47v142q0 118 34 152t79 34q8 0 16.5 -0.5t17.5 -1.5q3 -1 6 -1t5 -1q6 0 12 -0.5t11 -1.5v-109q-12 8 -23 12.5t-20 4.5q-21 0 -32.5 -25.5t-11.5 -79.5v-125h79v-71h-79v-433h-94v0z" />
    <glyph glyph-name="g" unicode="g" horiz-adv-x="386" 
d="M244 63q-15 -38 -41 -60t-55 -22h-3.5h-3.5q-38 3 -71 56t-39 175q-1 10 -1 19v18q0 133 35 191t76 63q3 1 5.5 1h5.5q29 0 55 -20t37 -52v64h95v-504q0 -142 -42.5 -177t-107.5 -35q-76 0 -114 38t-44 127h95q-1 -5 -1 -8.5v-7.5q-1 -33 18.5 -50t42.5 -17t40.5 14.5
t17.5 44.5v142v0zM189 417q-41 -1 -52 -50t-11 -132v-16.5v-16.5q1 -53 11.5 -96.5t51.5 -43.5q21 0 38.5 40t17.5 107v16.5t-1 17.5q0 65 -7 119t-48 54v1z" />
    <glyph glyph-name="h" unicode="h" horiz-adv-x="386" 
d="M39 0v827h103v-370q13 25 41 41.5t59 17.5h2.5h2.5q38 0 68.5 -27.5t30.5 -95.5v-393h-102v386q0 25 -14.5 37.5t-32.5 12.5h-1.5h-1.5q-19 0 -35.5 -17t-16.5 -50v-369h-103v0z" />
    <glyph glyph-name="i" unicode="i" horiz-adv-x="181" 
d="M31 0v504h103v-504h-103v0zM16 661q0 28 20.5 44t45.5 17h1.5h1.5q25 0 45 -15t20 -47t-20.5 -48t-45.5 -16q-25 -1 -46.5 15.5t-21.5 48.5v1z" />
    <glyph glyph-name="j" unicode="j" horiz-adv-x="181" 
d="M39 -197v701h95v-701h-95v0zM24 661q0 28 20.5 44t45.5 17h1.5h1.5q24 0 44 -15t20 -47t-20.5 -48t-45.5 -16h-1.5h-1.5q-24 0 -44 16.5t-20 47.5v1z" />
    <glyph glyph-name="k" unicode="k" horiz-adv-x="394" 
d="M31 0v827h103v-544l118 221h102l-126 -221l150 -283h-110l-134 268v-268h-103v0z" />
    <glyph glyph-name="l" unicode="l" horiz-adv-x="181" 
d="M31 0v827h103v-827h-103v0z" />
    <glyph glyph-name="m" unicode="m" horiz-adv-x="591" 
d="M39 0v504h95v-71q15 33 38.5 51.5t49.5 23.5q4 0 8 0.5t8 0.5q32 0 57 -20t28 -57q16 35 43 54.5t56 22.5q2 1 5 1h6q40 0 71 -31t31 -94v-385h-86v386q0 19 -17 30.5t-37 11.5q-21 0 -38.5 -12t-17.5 -39v-377h-95v386q0 19 -17 30.5t-37 11.5q-21 0 -38.5 -12
t-17.5 -39v-377h-95v0z" />
    <glyph glyph-name="n" unicode="n" horiz-adv-x="386" 
d="M39 0v504h103v-55q14 28 40 45.5t55 19.5q2 1 4.5 1h5.5q38 0 68.5 -30.5t30.5 -99.5v-385h-102v370q0 28 -15.5 43t-34.5 15q-19 1 -35.5 -14t-16.5 -45v-369h-103v0z" />
    <glyph glyph-name="o" unicode="o" horiz-adv-x="378" 
d="M31 252q0 147 43.5 203t114.5 56h7t6 1q76 0 114 -65t38 -196q0 -124 -38 -191.5t-127 -67.5q-82 0 -120 67.5t-38 191.5v1zM126 252q0 -72 14 -123t49 -51q41 0 52 48.5t11 124.5q0 71 -8 122t-55 51q-35 0 -49 -42t-14 -131v1z" />
    <glyph glyph-name="p" unicode="p" horiz-adv-x="378" 
d="M134 441q12 34 38 55.5t56 21.5h5.5t5.5 -1q43 -6 79 -65t36 -193q0 -140 -35.5 -199t-78.5 -65q-3 -1 -6.5 -1h-6.5q-31 0 -57 20t-36 48v-259h-95v701h95v-63v0zM189 433q-41 -1 -52 -50t-11 -132v-16.5t1 -16.5q1 -53 13.5 -96.5t48.5 -43.5q31 0 47.5 38t17.5 102
q0 10 -0.5 20.5t-1.5 20.5v1.5v1.5q0 64 -14 117t-49 53v1z" />
    <glyph glyph-name="q" unicode="q" horiz-adv-x="378" 
d="M244 71q-15 -38 -41 -60.5t-55 -22.5h-3.5h-3.5q-38 4 -71 57t-39 174q-1 10 -1 19v18q0 134 35 192t76 63q3 1 5.5 1h5.5q29 0 55 -20t37 -52v64h95v-701h-95v268v0zM189 425q-41 -1 -52 -50t-11 -132v-16.5v-16.5q1 -53 11.5 -96.5t51.5 -43.5q35 0 49 52.5t14 128.5
q0 65 -11 119t-52 54v1z" />
    <glyph glyph-name="r" unicode="r" horiz-adv-x="268" 
d="M39 0v504h95v-63q23 34 50 52t68 18v-86q-71 -1 -94.5 -30.5t-23.5 -64.5v-330h-95v0z" />
    <glyph glyph-name="s" unicode="s" horiz-adv-x="276" 
d="M31 110q23 -19 43.5 -27t36.5 -8q29 0 45.5 18.5t16.5 47.5q-3 32 -21.5 52t-42.5 38q-3 3 -7 5.5t-7 5.5q-30 21 -54.5 50.5t-24.5 84.5q0 71 41 104.5t93 34.5q5 0 10.5 -0.5t11.5 -0.5q16 -2 32.5 -7t31.5 -13v-86q-21 12 -40 17.5t-36 5.5q-30 0 -48 -14t-18 -33
q0 -24 15 -41.5t37 -33.5q7 -6 15 -11.5t16 -11.5q31 -23 57 -54t26 -84q0 -72 -43.5 -111.5t-99.5 -39.5q-5 0 -10.5 0.5t-11.5 1.5q-16 1 -32.5 7t-31.5 16v87v0z" />
    <glyph glyph-name="t" unicode="t" horiz-adv-x="220" 
d="M55 0v417h-47v87h47v134h102v-134h48v-87h-48v-417h-102v0z" />
    <glyph glyph-name="u" unicode="u" horiz-adv-x="386" 
d="M39 504h103v-370q0 -34 17 -49t37 -16h1.5h1.5q20 0 36.5 12.5t16.5 35.5v387h102v-354q0 -84 -35 -125t-106 -41t-122.5 32.5t-51.5 132.5v355v0z" />
    <glyph glyph-name="v" unicode="v" horiz-adv-x="354" 
d="M142 0l-142 504h110l63 -370l71 370h95l-134 -504h-63v0z" />
    <glyph glyph-name="w" unicode="w" horiz-adv-x="488" 
d="M236 378l-16 -150l-39 -228h-63l-134 504h103l55 -354l15 118l40 236h71l63 -354l15 118l40 236h94l-118 -504h-63l-47 228l-16 150v0z" />
    <glyph glyph-name="x" unicode="x" horiz-adv-x="394" 
d="M8 0l126 268l-126 236h118l71 -173l16 55l47 118h102l-118 -236l142 -268h-118l-71 173l-8 40l-8 -40l-71 -173h-102v0z" />
    <glyph glyph-name="y" unicode="y" horiz-adv-x="370" 
d="M134 39l-134 465h110l71 -347l79 347h102l-205 -701h-102l79 236v0z" />
    <glyph glyph-name="z" unicode="z" horiz-adv-x="339" 
d="M8 0l181 425h-158v79h300l-174 -417h158v-87h-307v0z" />
    <glyph glyph-name="braceleft" unicode="{" horiz-adv-x="260" 
d="M0 354q47 5 70.5 25t23.5 61v214q0 40 27 70.5t68 30.5l71 1v-55q-47 -1 -63 -19t-16 -53v-188q0 -48 -28.5 -76.5t-81.5 -34.5q41 -6 75.5 -29t34.5 -82v-180q0 -53 24.5 -65.5t54.5 -12.5v-55h-55q-47 0 -79 29.5t-32 87.5v182q0 52 -23.5 73.5t-70.5 27.5v48v0z" />
    <glyph glyph-name="bar" unicode="|" horiz-adv-x="252" 
d="M87 0v827h78v-827h-78v0z" />
    <glyph glyph-name="braceright" unicode="}" horiz-adv-x="260" 
d="M189 331q-59 5 -80.5 29.5t-21.5 71.5v190q0 40 -19 55t-60 15v64h47q53 -1 85.5 -34.5t32.5 -92.5v-180q0 -60 23 -78t64 -18v-54q-47 -7 -67 -22.5t-20 -80.5v-165q0 -77 -36.5 -105t-89.5 -28h-39v63q41 0 60 17.5t19 51.5v190q0 45 18.5 65.5t58.5 35.5q6 2 12 4.5
t13 4.5v1z" />
    <glyph glyph-name="asciitilde" unicode="~" horiz-adv-x="504" 
d="M47 213q19 55 49 83t70 28q23 0 48.5 -8.5t53.5 -25.5q26 -16 45 -25t34 -9q13 0 23.5 6t20.5 18q8 10 16.5 24.5t17.5 33.5l32 -47q-25 -62 -52.5 -85.5t-56.5 -23.5q-27 0 -55 14t-57 31q-22 13 -38.5 18.5t-30.5 5.5q-23 0 -38.5 -14.5t-30.5 -38.5q-4 -8 -9 -16.5
t-10 -17.5l-32 49v0z" />
    <glyph glyph-name="glyph98" unicode="&#xa1;" horiz-adv-x="252" 
d="M79 -205v575h102v-575h-102v0zM63 496q0 28 20.5 44t45.5 17h1.5h1.5q25 0 45 -15t20 -47t-20.5 -48.5t-45.5 -16.5q-25 -1 -46.5 15.5t-21.5 49.5v1z" />
    <glyph glyph-name="cent" unicode="&#xa2;" horiz-adv-x="409" 
d="M213 622v79h47v-79q6 -1 13 -1t15 -1q7 -1 14 -2.5t13 -4.5v-85q-8 4 -18.5 7.5t-21.5 3.5h-2.5h-2.5q-28 -3 -50.5 -36.5t-22.5 -125.5q0 -93 19 -137.5t51 -45.5q11 0 23 4.5t25 13.5v-86q-9 -7 -16 -10.5t-13 -4.5q-5 -2 -11.5 -2h-14.5v-62h-47v63q-4 0 -8.5 1.5
t-8.5 2.5q-38 13 -70 58.5t-32 188.5q0 154 36 204t83 56v1z" />
    <glyph glyph-name="sterling" unicode="&#xa3;" horiz-adv-x="409" 
d="M134 118q3 8 5.5 16t4.5 16q2 10 3.5 20t1.5 21q0 18 -3.5 40t-11.5 51l-95 1v40h79q-39 73 -56 133.5t-17 108.5q0 98 54 144t121 46q95 0 124.5 -41.5t41.5 -100.5l-79 -38q0 52 -24.5 76.5t-54.5 24.5q-52 -2 -71.5 -28.5t-20.5 -66.5q0 -25 6 -53t15 -57
q6 -17 11.5 -33t11.5 -32q9 -24 18 -45t15 -39l102 1v-40h-95q2 -8 4 -15l4 -14q3 -14 4.5 -28t1.5 -28q0 -31 -7.5 -57t-21.5 -40q6 -3 11.5 -6.5t10.5 -6.5q14 -9 26 -16.5t23 -7.5q7 0 13.5 3t12.5 12q3 4 6.5 9.5t6.5 12.5l79 -30q-2 -5 -4.5 -9t-5.5 -8
q-21 -34 -43.5 -52t-49.5 -18q-30 0 -53 8t-42 18t-34 18.5t-28 8.5q-10 0 -20 -6.5t-20 -23.5l-70 32q7 28 24.5 47t37.5 28q7 3 14 5t14 2q5 0 10.5 -1t9.5 -3v1z" />
    <glyph glyph-name="Idieresis" unicode="&#xa4;" horiz-adv-x="409" 
d="M-16 488l47 55l40 -39q30 19 64.5 33t73.5 14q31 0 63.5 -11t66.5 -37l39 40l55 -55l-39 -39q17 -27 27 -57.5t13 -61.5q0 -6 0.5 -13t0.5 -14q0 -46 -13 -87t-36 -67l39 -39l-47 -47l-39 39q-22 -26 -56.5 -40t-73.5 -14q-9 0 -18 1l-18 2q-26 5 -52.5 17t-49.5 33
l-40 -38l-47 55l40 39q-23 25 -34.5 63t-11.5 78q0 41 11 80.5t35 69.5l-40 40v0zM213 480q-81 -6 -119.5 -61.5t-38.5 -120.5v-1.5v-1.5q1 -67 39.5 -122.5t110.5 -55.5h3.5h2.5q73 0 110.5 56.5t37.5 123.5v1.5v1.5q0 65 -36.5 119.5t-109.5 59.5v1z" />
    <glyph glyph-name="ae" unicode="&#xa5;" horiz-adv-x="409" 
d="M165 0v268h-118v55h118l-23 71h-95v55h71l-110 307h110l95 -347l78 347h111l-95 -307h79v-55h-95l-23 -71h118v-55h-118v-268h-103v0z" />
    <glyph glyph-name="brokenbar" unicode="&#xa6;" 
 />
    <glyph glyph-name="section" unicode="&#xa7;" horiz-adv-x="417" 
d="M323 150q27 -18 43 -55.5t17 -78.5v-1.5v-1.5q-1 -57 -39.5 -106t-130.5 -49q-83 0 -124.5 52t-41.5 128l110 1q-1 -5 -1 -9.5v-8.5q0 -38 19 -57t43 -20q23 0 43 18t22 53v1.5v1.5v0.5v1.5q0 40 -30.5 67.5t-70.5 52.5q-5 3 -10.5 6.5t-10.5 6.5q-46 28 -84 63t-38 90
q0 12 1 25t4 26q7 31 25.5 60.5t56.5 46.5q-33 19 -49 54t-16 74v4v4q3 58 39 106.5t105 48.5q95 0 128 -43.5t45 -114.5l-110 1q1 3 1 6.5v7.5q1 30 -16 47t-38 17h-2.5h-2.5q-20 -2 -36.5 -22.5t-16.5 -63.5q0 -44 29 -66.5t67 -40.5q7 -3 13.5 -6t13.5 -6
q43 -21 79.5 -52.5t42.5 -96.5q0 -59 -22 -101.5t-57 -71.5v1zM252 213q31 25 44 47.5t13 42.5q0 32 -26 57t-57 42q-12 7 -23.5 12.5t-21.5 9.5q-20 -18 -32.5 -41t-13.5 -48q0 -4 0.5 -7.5t0.5 -7.5q5 -30 32 -58.5t84 -49.5v1z" />
    <glyph glyph-name="dieresis" unicode="&#xa8;" horiz-adv-x="283" 
d="M8 661q0 25 17 38.5t37 13.5q21 1 38.5 -12.5t17.5 -40.5q0 -29 -17 -43.5t-37 -14.5q-21 -1 -38.5 14t-17.5 44v1zM173 661q0 25 17 38.5t37 13.5q21 1 38.5 -12.5t17.5 -40.5q0 -29 -17 -43.5t-37 -14.5q-21 -1 -38.5 14t-17.5 44v1z" />
    <glyph glyph-name="copyright" unicode="&#xa9;" horiz-adv-x="803" 
d="M8 370q0 17 2 35.5t5 37.5q23 114 113 210.5t242 101.5q151 0 272.5 -107.5t121.5 -280.5v-6.5v-7.5q-6 -177 -121 -273t-257 -96q-148 0 -260 104t-118 281v1zM63 370q6 -131 84.5 -231.5t238.5 -100.5q124 0 223.5 83.5t99.5 231.5q0 158 -89 238.5t-196 96.5
q-14 2 -27.5 3t-26.5 1q-124 -6 -212.5 -87.5t-94.5 -235.5v1zM197 362q0 100 48.5 164t148.5 64q95 0 132 -44.5t49 -97.5l-55 1q-5 43 -40.5 68t-79.5 25h-5.5h-5.5q-48 -4 -88.5 -42.5t-41.5 -118.5v-4.5t1 -5.5v-4.5v-5.5q8 -82 46.5 -120t84.5 -43q4 -1 7.5 -1h7.5
q44 0 79.5 25.5t35.5 65.5v2.5v2.5q-1 1 -1 2.5v2.5l55 1v-5.5t1 -4.5q0 -56 -53 -98t-121 -42q-9 0 -17.5 1t-17.5 3q-64 13 -117 69t-53 139v1z" />
    <glyph glyph-name="ellipsis" unicode="&#xaa;" horiz-adv-x="228" 
d="M16 370v55h189v-55h-189v0zM142 496q-7 -18 -25 -30.5t-38 -12.5h-4t-4 1q-27 3 -49 37t-22 114q0 90 22 127t48 43q3 0 5.5 0.5t4.5 0.5q20 0 37.5 -11.5t24.5 -25.5v33h63v-307h-63v31v0zM63 606q0 -48 12 -75.5t35 -27.5q24 0 32 27.5t8 74.5q0 59 -12 88.5t-36 29.5
q-21 0 -29 -31t-10 -68v-9.5v-9.5v1z" />
    <glyph glyph-name="ydieresis" unicode="&#xab;" horiz-adv-x="354" 
d="M87 260l102 -197l-47 -24l-126 221l134 220l47 -31l-110 -189v0zM205 260l102 -197l-47 -24l-126 221l134 220l47 -31l-110 -189v0z" />
    <glyph glyph-name="emdash" unicode="&#xac;" 
 />
    <glyph glyph-name="uni00AD" unicode="&#xad;" horiz-adv-x="500" 
 />
    <glyph glyph-name="registered" unicode="&#xae;" horiz-adv-x="803" 
d="M8 378q0 17 2 35.5t6 37.5q24 114 117 210.5t245 101.5q151 0 276.5 -108.5t125.5 -281.5v-6v-6q-6 -177 -125 -273t-261 -96q-148 0 -264 104t-122 281v1zM71 378q6 -131 84.5 -231.5t238.5 -100.5q124 0 223.5 83.5t99.5 231.5q0 156 -88 237t-193 97q-15 3 -29.5 4
t-28.5 1q-124 -6 -212.5 -87.5t-94.5 -235.5v1zM236 157v441h205q59 -1 104.5 -27.5t45.5 -91.5q0 -53 -32.5 -86.5t-109.5 -39.5l134 -196h-71l-126 197h-79v-197h-71v0zM307 551v-149h142q37 -1 58 23.5t22 53.5v1.5v1.5q0 26 -19 47t-61 21l-142 1v0z" />
    <glyph glyph-name="glyph263" unicode="&#xaf;" 
 />
    <glyph glyph-name="glyph264" unicode="&#xb0;" 
 />
    <glyph glyph-name="mu" unicode="&#xb1;" horiz-adv-x="504" 
 />
    <glyph glyph-name="uni00B2" unicode="&#xb2;" 
 />
    <glyph glyph-name="uni00B3" unicode="&#xb3;" 
 />
    <glyph glyph-name="acute" unicode="&#xb4;" horiz-adv-x="283" 
d="M71 591l79 149l70 -47l-102 -126l-47 24v0z" />
    <glyph glyph-name="oslash" unicode="&#xb5;" horiz-adv-x="386" 
 />
    <glyph glyph-name="paragraph" unicode="&#xb6;" horiz-adv-x="441" 
d="M157 -110v480q-75 8 -112 67t-37 128q0 72 39.5 131t117.5 59l237 1v-866h-87v803h-71v-803h-87v0z" />
    <glyph glyph-name="glyph265" unicode="&#xb7;" 
 />
    <glyph glyph-name="glyph121" unicode="&#xb8;" horiz-adv-x="283" 
d="M71 -189l63 142l63 -40l-87 -133l-39 31v0z" />
    <glyph glyph-name="uni00B9" unicode="&#xb9;" 
 />
    <glyph glyph-name="Agrave" unicode="&#xba;" horiz-adv-x="228" 
d="M24 370v55h189v-55h-189v0zM16 606q0 82 27.5 123.5t74.5 41.5q53 0 81.5 -37.5t28.5 -120.5q0 -76 -27.5 -116.5t-74.5 -40.5t-78.5 33.5t-31.5 115.5v1zM79 606q0 -48 11.5 -75.5t35.5 -27.5q23 0 31 27.5t8 74.5q0 59 -11.5 88.5t-35.5 29.5q-21 0 -29 -31t-10 -68
v-9.5v-9.5v1z" />
    <glyph glyph-name="Ydieresis" unicode="&#xbb;" horiz-adv-x="354" 
d="M150 260l-119 189l48 31l134 -220l-119 -229l-55 32l111 197v0zM268 260l-118 189l47 31l134 -220l-118 -229l-56 32l111 197v0z" />
    <glyph glyph-name="onequarter" unicode="&#xbc;" 
 />
    <glyph glyph-name="glyph243" unicode="&#xbd;" horiz-adv-x="614" 
 />
    <glyph glyph-name="threequarters" unicode="&#xbe;" 
 />
    <glyph glyph-name="oe" unicode="&#xbf;" horiz-adv-x="339" 
d="M134 370h94v-228q-7 0 -13.5 0.5t-12.5 0.5q-41 0 -55.5 -30t-14.5 -101q0 -17 0.5 -38t1.5 -45q2 -29 14 -43t25 -14q18 -1 33 20.5t16 63.5q0 6 -0.5 13t-1.5 15h95q1 -9 1 -18v-17q0 -78 -27.5 -120t-91.5 -42h-8h-8q-85 -1 -114.5 53.5t-35.5 166.5q0 107 22 156
t81 49v158v0zM118 504q0 28 20.5 44t45.5 17h1.5h1.5q25 0 45 -15t20 -47t-20.5 -48.5t-45.5 -16.5q-25 -1 -46.5 15.5t-21.5 49.5v1z" />
    <glyph glyph-name="currency" unicode="&#xc0;" horiz-adv-x="417" 
d="M0 0l165 756h79l165 -756h-110l-23 150h-150l-24 -150h-102v0zM260 236l-55 410l-63 -410h118v0zM236 819l-102 134l63 47l86 -150l-47 -31v0z" />
    <glyph glyph-name="breve" unicode="&#xc1;" horiz-adv-x="417" 
d="M0 0l165 756h79l165 -756h-110l-23 150h-150l-24 -150h-102v0zM260 236l-55 410l-63 -410h118v0zM189 843l79 149l71 -47l-103 -126l-47 24v0z" />
    <glyph glyph-name="tilde" unicode="&#xc2;" horiz-adv-x="417" 
d="M0 0l165 756h79l165 -756h-110l-23 150h-150l-24 -150h-102v0zM260 236l-55 410l-63 -410h118v0zM213 913l-71 -94l-48 39l119 142l126 -134l-40 -39l-86 86v0z" />
    <glyph glyph-name="guilsinglleft" unicode="&#xc3;" horiz-adv-x="417" 
d="M0 0l165 756h79l165 -756h-110l-23 150h-150l-24 -150h-102v0zM260 236l-55 410l-63 -410h118v0zM87 843q0 46 20.5 77.5t49.5 31.5q9 0 19.5 -4t21.5 -9q3 -2 6.5 -4t6.5 -3q14 -8 26.5 -14.5t22.5 -6.5q9 0 15.5 7t7.5 26l56 1q0 -48 -15 -75.5t-56 -27.5
q-16 0 -30.5 5.5t-27.5 12.5q-12 6 -22 11.5t-18 5.5t-13 -7.5t-7 -27.5l-63 1v0z" />
    <glyph glyph-name="Adieresis" unicode="&#xc4;" horiz-adv-x="417" 
d="M0 0l165 756h79l165 -756h-110l-23 150h-150l-24 -150h-102v0zM260 236l-55 410l-63 -410h118v0zM79 898q0 25 17 38.5t37 13.5q21 1 38.5 -12.5t17.5 -40.5q0 -29 -17 -44t-37 -15q-21 -1 -38.5 14t-17.5 45v1zM244 898q0 25 17 38.5t37 13.5q21 1 38.5 -12.5
t17.5 -40.5q0 -29 -17 -44t-37 -15q-21 -1 -38.5 14t-17.5 45v1z" />
    <glyph glyph-name="Aring" unicode="&#xc5;" horiz-adv-x="417" 
d="M0 0l165 756h79l165 -756h-110l-23 150h-150l-24 -150h-102v0zM260 236l-55 410l-63 -410h118v0zM142 906v1v2v1v2q0 37 24.5 57t53.5 22h1.5h1.5q32 0 58 -21t26 -65q0 -38 -25.5 -57.5t-56.5 -19.5h-1.5h-1.5q-30 0 -55 19.5t-25 57.5v1zM189 913q0 -21 11 -31.5
t24 -10.5q14 -1 25 9.5t11 31.5q0 15 -10.5 22.5t-24.5 7.5q-13 0 -24.5 -7.5t-11.5 -22.5v1z" />
    <glyph glyph-name="Oslash" unicode="&#xc6;" horiz-adv-x="567" 
d="M0 0l157 764h260l16 -87h-165l55 -252h149l16 -79h-149l55 -259h157l16 -87h-252l-32 150h-157l-24 -150h-102v0zM142 228h126l-40 213l-23 189l-63 -402v0z" />
    <glyph glyph-name="Ccedilla" unicode="&#xc7;" horiz-adv-x="370" 
d="M118 -189l63 142l63 -40l-87 -133l-39 31v0zM354 94v-94q-14 -5 -29.5 -8.5t-30.5 -5.5q-7 -1 -14.5 -1.5t-15.5 -0.5q-85 0 -151 78.5t-66 298.5q0 232 58 314.5t152 82.5q21 0 43.5 -3t45.5 -8v-93q-19 7 -36.5 11.5t-33.5 4.5q-61 1 -93.5 -70t-32.5 -231
q0 -155 36 -216.5t80 -71.5q6 -2 12.5 -2.5t12.5 -0.5q18 -1 34 4t29 11v1z" />
    <glyph glyph-name="ring" unicode="&#xc8;" horiz-adv-x="346" 
d="M55 0v756h276v-95h-174v-220h150v-87h-150v-260h174v-94h-276v0zM213 811l-103 134l63 47l87 -149l-47 -32v0z" />
    <glyph glyph-name="Eacute" unicode="&#xc9;" horiz-adv-x="346" 
d="M55 0v756h276v-95h-174v-220h150v-87h-150v-260h174v-94h-276v0zM165 835l79 149l71 -47l-102 -126l-48 24v0z" />
    <glyph glyph-name="macron" unicode="&#xca;" horiz-adv-x="346" 
d="M55 0v756h276v-95h-174v-220h150v-87h-150v-260h174v-94h-276v0zM197 906l-71 -95l-47 39l118 142l126 -134l-40 -39l-86 87v0z" />
    <glyph glyph-name="dotaccent" unicode="&#xcb;" horiz-adv-x="346" 
d="M55 0v756h276v-95h-174v-220h150v-87h-150v-260h174v-94h-276v0zM55 874q0 25 17 38.5t37 13.5q21 1 38.5 -12.5t17.5 -40.5q0 -29 -17 -44t-37 -15q-21 -1 -38.5 14t-17.5 45v1zM220 874q0 25 17 38.5t38 13.5q21 1 38.5 -12.5t17.5 -40.5q0 -29 -17 -44t-38 -15
q-21 -1 -38.5 14t-17.5 45v1z" />
    <glyph glyph-name="caron" unicode="&#xcc;" horiz-adv-x="220" 
d="M55 0v756h95v-756h-95v0zM142 819l-103 134l63 47l87 -150l-47 -31v0z" />
    <glyph glyph-name="cedilla" unicode="&#xcd;" horiz-adv-x="220" 
d="M55 0v756h95v-756h-95v0zM79 843l78 149l71 -47l-102 -126l-47 24v0z" />
    <glyph glyph-name="hungarumlaut" unicode="&#xce;" horiz-adv-x="220" 
d="M55 0v756h95v-756h-95v0zM118 921l-71 -94l-47 39l118 142l126 -134l-39 -39l-87 86v0z" />
    <glyph glyph-name="ogonek" unicode="&#xcf;" horiz-adv-x="220" 
d="M55 0v756h95v-756h-95v0zM-16 890q1 25 17.5 38.5t36.5 13.5q21 1 38.5 -12.5t17.5 -40.5q0 -29 -17 -44t-37 -15q-21 -1 -38 14t-17 45zM150 890q0 25 17 38.5t37 13.5q21 1 38.5 -12.5t17.5 -40.5q0 -29 -17 -44t-37 -15q-21 -1 -38.5 14t-17.5 45v1z" />
    <glyph glyph-name="glyph232" unicode="&#xd0;" horiz-adv-x="465" 
 />
    <glyph glyph-name="Ntilde" unicode="&#xd1;" horiz-adv-x="472" 
d="M55 0v756h102l174 -575l-24 268v307h102v-756h-86l-189 591l23 -268v-323h-102v0zM110 858q0 46 21 78t50 32q10 0 21 -4.5t23 -10.5q2 -2 4.5 -3t4.5 -2q14 -8 27 -14.5t23 -6.5q9 0 15.5 7t7.5 26l55 1q0 -48 -15 -76t-56 -28q-16 0 -30 5.5t-27 12.5q-12 6 -22.5 11.5
t-18.5 5.5q-7 0 -12.5 -7.5t-7.5 -27.5l-63 1v0z" />
    <glyph glyph-name="scaron" unicode="&#xd2;" 
 />
    <glyph glyph-name="Lslash" unicode="&#xd3;" horiz-adv-x="472" 
d="M228 756q101 -1 149 -97.5t48 -297.5q0 -165 -37 -271t-144 -106q-94 0 -149.5 81.5t-55.5 287.5q0 178 38.5 290t150.5 112v1zM228 661q-53 -1 -69.5 -83.5t-16.5 -200.5q0 -171 26.5 -239t67.5 -68q47 0 67 76.5t20 230.5t-24 218.5t-71 64.5v1zM205 835l78 149l71 -47
l-102 -126l-47 24v0z" />
    <glyph glyph-name="lslash" unicode="&#xd4;" horiz-adv-x="472" 
d="M228 756q101 -1 149 -97.5t48 -297.5q0 -165 -37 -271t-144 -106q-94 0 -149.5 81.5t-55.5 287.5q0 178 38.5 290t150.5 112v1zM228 661q-53 -1 -69.5 -83.5t-16.5 -200.5q0 -171 26.5 -239t67.5 -68q47 0 67 76.5t20 230.5t-24 218.5t-71 64.5v1zM236 913l-71 -94
l-47 39l118 142l126 -134l-39 -39l-87 86v0z" />
    <glyph glyph-name="guilsinglright" unicode="&#xd5;" horiz-adv-x="472" 
d="M228 756q101 -1 149 -97.5t48 -297.5q0 -165 -37 -271t-144 -106q-94 0 -149.5 81.5t-55.5 287.5q0 178 38.5 290t150.5 112v1zM228 661q-53 -1 -69.5 -83.5t-16.5 -200.5q0 -171 26.5 -239t67.5 -68q47 0 67 76.5t20 230.5t-24 218.5t-71 64.5v1zM94 835q0 46 21 77.5
t50 31.5q10 0 20 -4t21 -10q3 -1 6.5 -3t6.5 -4q13 -7 26 -13.5t23 -6.5q9 0 15.5 7t7.5 26l55 1q0 -48 -14.5 -75.5t-55.5 -27.5q-16 0 -30.5 5.5t-27.5 12.5q-12 6 -22 11.5t-18 5.5t-13.5 -7.5t-7.5 -27.5l-63 1v0z" />
    <glyph glyph-name="Odieresis" unicode="&#xd6;" horiz-adv-x="472" 
d="M228 756q101 -1 149 -97.5t48 -297.5q0 -165 -37 -271t-144 -106q-94 0 -149.5 81.5t-55.5 287.5q0 178 38.5 290t150.5 112v1zM228 661q-53 -1 -69.5 -83.5t-16.5 -200.5q0 -171 26.5 -239t67.5 -68q47 0 67 76.5t20 230.5t-24 218.5t-71 64.5v1zM102 906q0 25 17 38
t38 13q21 1 38.5 -12.5t17.5 -39.5q0 -29 -17 -44t-38 -15q-21 -1 -38.5 14t-17.5 45v1zM268 906q0 25 17 38t37 13q21 1 38.5 -12.5t17.5 -39.5q0 -29 -17 -44t-37 -15q-21 -1 -38.5 14t-17.5 45v1z" />
    <glyph glyph-name="multiply" unicode="&#xd7;" 
 />
    <glyph glyph-name="plusminus" unicode="&#xd8;" horiz-adv-x="472" 
d="M79 94q-24 52 -32 145t-8 193q6 177 52.5 255t128.5 84q12 0 28.5 -2t33.5 -7q25 -7 47.5 -20t32.5 -34l32 72l39 -24l-39 -87q18 -51 26.5 -122.5t11.5 -146.5q0 -22 0.5 -43.5t0.5 -42.5q-6 -195 -59 -259.5t-130 -70.5q-13 0 -30.5 2.5t-35.5 7.5q-22 6 -42.5 17
t-33.5 27l-31 -69l-40 23l48 102v0zM157 165q4 -8 8 -16.5t9 -17.5q11 -20 26.5 -36.5t35.5 -16.5q50 0 69.5 86.5t19.5 236.5q0 28 -0.5 57.5t-1.5 60.5l-166 -354v0zM150 244l157 347q-5 11 -9.5 21t-8.5 18q-10 20 -23 29t-38 9h-2.5h-3.5q-36 1 -56 -63.5t-20 -210.5
q0 -33 1 -70.5t3 -80.5v1z" />
    <glyph glyph-name="Thorn" unicode="&#xd9;" horiz-adv-x="465" 
d="M63 756h94v-575q0 -48 15 -79.5t56 -31.5q36 0 57.5 26.5t21.5 91.5v568h95v-575q0 -113 -44.5 -159t-121.5 -46q-88 0 -130.5 46t-42.5 158v576v0zM260 811l-103 134l63 47l87 -149l-47 -32v0z" />
    <glyph glyph-name="Eth" unicode="&#xda;" horiz-adv-x="465" 
d="M63 756h94v-575q0 -48 15 -79.5t56 -31.5q36 0 57.5 26.5t21.5 91.5v568h95v-575q0 -113 -44.5 -159t-121.5 -46q-88 0 -130.5 46t-42.5 158v576v0zM197 835l79 149l70 -47l-102 -126l-47 24v0z" />
    <glyph glyph-name="eth" unicode="&#xdb;" horiz-adv-x="465" 
d="M63 756h94v-575q0 -48 15 -79.5t56 -31.5q36 0 57.5 26.5t21.5 91.5v568h95v-575q0 -113 -44.5 -159t-121.5 -46q-88 0 -130.5 46t-42.5 158v576v0zM228 921l-71 -94l-47 39l118 142l126 -134l-39 -39l-87 86v0z" />
    <glyph glyph-name="Udieresis" unicode="&#xdc;" horiz-adv-x="465" 
d="M63 756h94v-575q0 -48 15 -79.5t56 -31.5q36 0 57.5 26.5t21.5 91.5v568h95v-575q0 -113 -44.5 -159t-121.5 -46q-88 0 -130.5 46t-42.5 158v576v0zM94 898q0 25 17 38.5t38 13.5q21 1 38.5 -12.5t17.5 -40.5q0 -29 -17 -44t-38 -15q-21 -1 -38.5 14t-17.5 45v1zM260 898
q0 25 17 38.5t37 13.5q21 1 38.5 -12.5t17.5 -40.5q0 -29 -17 -44t-37 -15q-21 -1 -38.5 14t-17.5 45v1z" />
    <glyph glyph-name="Yacute" unicode="&#xdd;" 
 />
    <glyph glyph-name="glyph236" unicode="&#xde;" horiz-adv-x="394" 
 />
    <glyph glyph-name="germandbls" unicode="&#xdf;" horiz-adv-x="425" 
d="M63 0v425h-47v71h47v205v8.5t1 9.5q5 43 37 79t112 36q65 0 108 -30.5t49 -143.5q1 -7 1 -13v-12q0 -54 -21.5 -86.5t-58.5 -37.5l8 -4t8 -3q44 -22 61.5 -64t17.5 -189v-8.5t1 -9.5v-8.5v-8.5q0 -133 -39 -175t-117 -42h-16.5t-17.5 1v79q71 5 82.5 40.5t11.5 147.5
q0 95 -18.5 147t-83.5 57v80q43 -1 65.5 18t22.5 74v12t-1 13q-3 43 -20.5 63t-38.5 20q-22 0 -41 -21t-19 -62v-668h-94v0z" />
    <glyph glyph-name="agrave" unicode="&#xe0;" horiz-adv-x="378" 
d="M244 71q-15 -38 -41 -60.5t-55 -22.5h-3.5h-3.5q-38 4 -71 57t-39 174q-1 10 -1 19v18q0 134 35 192t76 63q3 1 5.5 1h5.5q29 0 55 -20t37 -52v64h95v-504h-95v71v0zM189 425q-41 -1 -52 -50t-11 -132v-16.5v-16.5q1 -53 11.5 -96.5t51.5 -43.5q4 0 8 1.5t8 4.5
q18 12 33 50.5t15 95.5v7.5v7.5q0 3 -0.5 6.5t-0.5 7.5q0 65 -11 119t-52 54v1zM228 567l-102 134l63 47l87 -150l-48 -31v0z" />
    <glyph glyph-name="aacute" unicode="&#xe1;" horiz-adv-x="378" 
d="M244 71q-15 -38 -41 -60.5t-55 -22.5h-3.5h-3.5q-38 4 -71 57t-39 174q-1 10 -1 19v18q0 134 35 192t76 63q3 1 5.5 1h5.5q29 0 55 -20t37 -52v64h95v-504h-95v71v0zM189 425q-41 -1 -52 -50t-11 -132v-16.5v-16.5q1 -53 11.5 -96.5t51.5 -43.5q4 0 8 1.5t8 4.5
q18 12 33 50.5t15 95.5v7.5v7.5q0 3 -0.5 6.5t-0.5 7.5q0 65 -11 119t-52 54v1zM157 591l79 149l71 -47l-102 -126l-48 24v0z" />
    <glyph glyph-name="acircumflex" unicode="&#xe2;" horiz-adv-x="378" 
d="M244 71q-15 -38 -41 -60.5t-55 -22.5h-3.5h-3.5q-38 4 -71 57t-39 174q-1 10 -1 19v18q0 134 35 192t76 63q3 1 5.5 1h5.5q29 0 55 -20t37 -52v64h95v-504h-95v71v0zM189 425q-41 -1 -52 -50t-11 -132v-16.5v-16.5q1 -53 11.5 -96.5t51.5 -43.5q4 0 8 1.5t8 4.5
q18 12 33 50.5t15 95.5v7.5v7.5q0 3 -0.5 6.5t-0.5 7.5q0 65 -11 119t-52 54v1zM205 677l-71 -94l-47 39l118 142l126 -134l-40 -39l-86 86v0z" />
    <glyph glyph-name="atilde" unicode="&#xe3;" horiz-adv-x="378" 
d="M244 71q-15 -38 -41 -60.5t-55 -22.5h-3.5h-3.5q-38 4 -71 57t-39 174q-1 10 -1 19v18q0 134 35 192t76 63q3 1 5.5 1h5.5q29 0 55 -20t37 -52v64h95v-504h-95v71v0zM189 425q-41 -1 -52 -50t-11 -132v-16.5v-16.5q1 -53 11.5 -96.5t51.5 -43.5q4 0 8 1.5t8 4.5
q18 12 33 50.5t15 95.5v7.5v7.5q0 3 -0.5 6.5t-0.5 7.5q0 65 -11 119t-52 54v1zM79 606q0 46 20.5 78t50.5 32q10 0 21 -4.5t23 -10.5q2 -2 4.5 -3t4.5 -2q14 -8 27 -14.5t23 -6.5q9 0 15.5 7t7.5 26l55 1q0 -48 -15 -76t-56 -28q-16 0 -30 5.5t-27 12.5q-12 6 -22.5 11.5
t-18.5 5.5q-7 0 -12.5 -7.5t-7.5 -27.5l-63 1v0z" />
    <glyph glyph-name="adieresis" unicode="&#xe4;" horiz-adv-x="378" 
d="M244 71q-15 -38 -41 -60.5t-55 -22.5h-3.5h-3.5q-38 4 -71 57t-39 174q-1 10 -1 19v18q0 134 35 192t76 63q3 1 5.5 1h5.5q29 0 55 -20t37 -52v64h95v-504h-95v71v0zM189 425q-41 -1 -52 -50t-11 -132v-16.5v-16.5q1 -53 11.5 -96.5t51.5 -43.5q4 0 8 1.5t8 4.5
q18 12 33 50.5t15 95.5v7.5v7.5q0 3 -0.5 6.5t-0.5 7.5q0 65 -11 119t-52 54v1zM71 654q0 25 17 38t37 13q21 1 38.5 -12.5t17.5 -39.5q0 -29 -17 -44t-37 -15q-21 -1 -38.5 14t-17.5 45v1zM236 654q0 25 17 38t37 13q21 1 38.5 -12.5t17.5 -39.5q0 -29 -17 -44t-37 -15
q-21 -1 -38.5 14t-17.5 45v1z" />
    <glyph glyph-name="aring" unicode="&#xe5;" horiz-adv-x="378" 
d="M244 71q-15 -38 -41 -60.5t-55 -22.5h-3.5h-3.5q-38 4 -71 57t-39 174q-1 10 -1 19v18q0 134 35 192t76 63q3 1 5.5 1h5.5q29 0 55 -20t37 -52v64h95v-504h-95v71v0zM189 425q-41 -1 -52 -50t-11 -132v-16.5v-16.5q1 -53 11.5 -96.5t51.5 -43.5q4 0 8 1.5t8 4.5
q18 12 33 50.5t15 95.5v7.5v7.5q0 3 -0.5 6.5t-0.5 7.5q0 65 -11 119t-52 54v1zM118 654v1v2v1v2q0 37 24.5 57t53.5 22h1.5h1.5q32 0 58 -21t26 -65q0 -38 -25.5 -57.5t-56.5 -19.5h-1.5h-1.5q-30 0 -55 19.5t-25 57.5v1zM165 661q0 -21 11 -31.5t24 -10.5q14 -1 25 9.5
t11 31.5q0 15 -10.5 22.5t-24.5 7.5q-13 0 -24.5 -7.5t-11.5 -22.5v1z" />
    <glyph glyph-name="Otilde" unicode="&#xe6;" horiz-adv-x="559" 
d="M323 236q6 -71 18 -118.5t53 -47.5q28 0 39 21.5t11 49.5v8t-1 8q0 3 -0.5 7t-1.5 8l94 1v-3.5v-2.5v-2.5v-2.5q1 -85 -41 -126.5t-92 -45.5q-3 -1 -6.5 -1h-6.5q-40 0 -74.5 20.5t-46.5 60.5q-14 -38 -43 -57.5t-61 -21.5h-2.5h-2.5h-1.5h-1.5q-45 1 -83 36.5t-42 105.5
v3.5v3.5v3.5v3.5q-1 98 38.5 140t86.5 42q22 0 43 -8t37 -23q2 10 2.5 18.5t0.5 16.5q0 53 -25 74.5t-60 21.5q-6 0 -12.5 -0.5t-13.5 -2.5q-19 -3 -38 -12t-35 -21v95q20 17 45.5 25t51.5 8q44 0 82.5 -20t48.5 -53q11 34 41 54t65 20q5 0 10 -0.5t10 -1.5q50 -8 92 -66.5
t43 -184.5v-16.5t-1 -17.5l-220 1v0zM126 165q0 -50 18 -75.5t40 -25.5q23 -1 41.5 24t18.5 76q0 48 -18 71t-40 24q-22 0 -41 -21.5t-19 -62.5v-2.5v-2.5v-3v-3v1zM323 307h126q0 65 -19 97t-42 32h-1.5h-1.5q-23 -2 -42.5 -35.5t-19.5 -94.5v1z" />
    <glyph glyph-name="ccedilla" unicode="&#xe7;" horiz-adv-x="276" 
d="M71 -189l63 142l63 -40l-87 -133l-39 31v0zM268 102v-86q-25 -15 -47.5 -21t-42.5 -6q-73 0 -110 75t-37 187q0 155 46 207t105 52q22 0 43.5 -4t42.5 -11v-101q-12 11 -27 19t-31 8q-29 0 -52.5 -36.5t-23.5 -133.5q0 -86 20.5 -129t55.5 -43q13 0 27.5 5.5t30.5 16.5v1
z" />
    <glyph glyph-name="egrave" unicode="&#xe8;" horiz-adv-x="362" 
d="M118 228q0 -71 17 -110.5t46 -39.5q24 0 39.5 19.5t15.5 66.5l95 1q-12 -113 -54.5 -143t-95.5 -30q-70 0 -113.5 61.5t-43.5 197.5q0 113 34.5 186.5t122.5 73.5q71 0 110.5 -59.5t40.5 -187.5v-18t-1 -19l-213 1v0zM118 299h118v6.5v6.5q1 56 -17 86t-40 30h-1.5h-1.5
q-22 -1 -40 -33t-18 -97v1zM213 575l-103 134l63 47l87 -150l-47 -31v0z" />
    <glyph glyph-name="eacute" unicode="&#xe9;" horiz-adv-x="362" 
d="M118 228q0 -71 17 -110.5t46 -39.5q24 0 39.5 19.5t15.5 66.5l95 1q-12 -113 -54.5 -143t-95.5 -30q-70 0 -113.5 61.5t-43.5 197.5q0 113 34.5 186.5t122.5 73.5q71 0 110.5 -59.5t40.5 -187.5v-18t-1 -19l-213 1v0zM118 299h118v6.5v6.5q1 56 -17 86t-40 30h-1.5h-1.5
q-22 -1 -40 -33t-18 -97v1zM142 591l78 149l71 -47l-102 -126l-47 24v0z" />
    <glyph glyph-name="ecircumflex" unicode="&#xea;" horiz-adv-x="362" 
d="M118 228q0 -71 17 -110.5t46 -39.5q24 0 39.5 19.5t15.5 66.5l95 1q-12 -113 -54.5 -143t-95.5 -30q-70 0 -113.5 61.5t-43.5 197.5q0 113 34.5 186.5t122.5 73.5q71 0 110.5 -59.5t40.5 -187.5v-18t-1 -19l-213 1v0zM118 299h118v6.5v6.5q1 56 -17 86t-40 30h-1.5h-1.5
q-22 -1 -40 -33t-18 -97v1zM181 677l-71 -94l-47 39l118 142l126 -134l-39 -39l-87 86v0z" />
    <glyph glyph-name="edieresis" unicode="&#xeb;" horiz-adv-x="362" 
d="M118 228q0 -71 17 -110.5t46 -39.5q24 0 39.5 19.5t15.5 66.5l95 1q-12 -113 -54.5 -143t-95.5 -30q-70 0 -113.5 61.5t-43.5 197.5q0 113 34.5 186.5t122.5 73.5q71 0 110.5 -59.5t40.5 -187.5v-18t-1 -19l-213 1v0zM118 299h118v6.5v6.5q1 56 -17 86t-40 30h-1.5h-1.5
q-22 -1 -40 -33t-18 -97v1zM39 661q0 25 17 38.5t38 13.5q21 1 38.5 -12.5t17.5 -40.5q0 -29 -17 -43.5t-38 -14.5q-21 -1 -38.5 14t-17.5 44v1zM205 661q0 25 17 38.5t37 13.5q21 1 38.5 -12.5t17.5 -40.5q0 -29 -17 -43.5t-37 -14.5q-21 -1 -38.5 14t-17.5 44v1z" />
    <glyph glyph-name="igrave" unicode="&#xec;" horiz-adv-x="181" 
d="M39 0v512h95v-512h-95v0zM118 567l-102 134l63 47l86 -150l-47 -31v0z" />
    <glyph glyph-name="iacute" unicode="&#xed;" horiz-adv-x="181" 
d="M39 0v512h95v-512h-95v0zM63 598l79 150l71 -47l-103 -126l-47 23v0z" />
    <glyph glyph-name="icircumflex" unicode="&#xee;" horiz-adv-x="181" 
d="M39 0v512h95v-512h-95v0zM94 669l-70 -94l-48 39l118 142l126 -134l-39 -39l-87 86v0z" />
    <glyph glyph-name="idieresis" unicode="&#xef;" horiz-adv-x="181" 
d="M39 0v512h95v-512h-95v0zM-39 661q1 25 18 38.5t36 13.5q21 1 38.5 -12.5t17.5 -40.5q0 -29 -17 -43.5t-37 -14.5q-20 -1 -37.5 14t-17.5 44zM126 661q0 25 17 38.5t37 13.5q21 1 38.5 -12.5t17.5 -40.5q0 -29 -17 -43.5t-37 -14.5q-21 -1 -38.5 14t-17.5 44v1z" />
    <glyph glyph-name="glyph233" unicode="&#xf0;" horiz-adv-x="378" 
 />
    <glyph glyph-name="ntilde" unicode="&#xf1;" horiz-adv-x="386" 
d="M39 0v504h103v-55q14 28 40 45.5t55 19.5q2 1 4.5 1h5.5q38 0 68.5 -30.5t30.5 -99.5v-385h-102v370q0 28 -15.5 43t-34.5 15q-19 1 -35.5 -14t-16.5 -45v-369h-103v0zM55 614q0 46 21 77.5t50 31.5q10 0 21 -4.5t22 -10.5q2 -1 4.5 -2.5t5.5 -2.5q13 -7 26 -13.5
t23 -6.5q9 -1 15.5 6.5t8.5 26.5l55 1q0 -48 -15 -76t-56 -28q-16 0 -30 5.5t-27 12.5q-12 6 -22.5 11.5t-18.5 5.5q-7 0 -12.5 -7.5t-7.5 -27.5l-63 1v0z" />
    <glyph glyph-name="ograve" unicode="&#xf2;" horiz-adv-x="378" 
d="M31 252q0 147 43.5 203t114.5 56h7t6 1q76 0 114 -65t38 -196q0 -124 -38 -191.5t-127 -67.5q-82 0 -120 67.5t-38 191.5v1zM126 252q0 -72 14 -123t49 -51q41 0 52 48.5t11 124.5q0 71 -8 122t-55 51q-35 0 -49 -42t-14 -131v1zM205 567l-103 134l63 47l87 -150l-47 -31
v0z" />
    <glyph glyph-name="oacute" unicode="&#xf3;" horiz-adv-x="378" 
d="M31 252q0 147 43.5 203t114.5 56h7t6 1q76 0 114 -65t38 -196q0 -124 -38 -191.5t-127 -67.5q-82 0 -120 67.5t-38 191.5v1zM126 252q0 -72 14 -123t49 -51q41 0 52 48.5t11 124.5q0 71 -8 122t-55 51q-35 0 -49 -42t-14 -131v1zM142 591l78 149l71 -47l-102 -126l-47 24
v0z" />
    <glyph glyph-name="ocircumflex" unicode="&#xf4;" horiz-adv-x="378" 
d="M31 252q0 147 43.5 203t114.5 56h7t6 1q76 0 114 -65t38 -196q0 -124 -38 -191.5t-127 -67.5q-82 0 -120 67.5t-38 191.5v1zM126 252q0 -72 14 -123t49 -51q41 0 52 48.5t11 124.5q0 71 -8 122t-55 51q-35 0 -49 -42t-14 -131v1zM181 669l-71 -94l-47 39l118 142
l126 -134l-39 -39l-87 86v0z" />
    <glyph glyph-name="otilde" unicode="&#xf5;" horiz-adv-x="378" 
d="M31 252q0 147 43.5 203t114.5 56h7t6 1q76 0 114 -65t38 -196q0 -124 -38 -191.5t-127 -67.5q-82 0 -120 67.5t-38 191.5v1zM126 252q0 -72 14 -123t49 -51q41 0 52 48.5t11 124.5q0 71 -8 122t-55 51q-35 0 -49 -42t-14 -131v1zM63 614q0 46 20.5 77.5t50.5 31.5
q10 0 21 -4.5t22 -10.5q2 -1 4.5 -2.5t5.5 -2.5q13 -7 26 -13.5t23 -6.5q9 -1 15.5 6.5t8.5 26.5l55 1q0 -48 -15 -76t-56 -28q-16 0 -30 5.5t-27 12.5q-12 6 -22.5 11.5t-18.5 5.5q-7 0 -12.5 -7.5t-7.5 -27.5l-63 1v0z" />
    <glyph glyph-name="odieresis" unicode="&#xf6;" horiz-adv-x="378" 
d="M31 252q0 147 43.5 203t114.5 56h7t6 1q76 0 114 -65t38 -196q0 -124 -38 -191.5t-127 -67.5q-82 0 -120 67.5t-38 191.5v1zM126 252q0 -72 14 -123t49 -51q41 0 52 48.5t11 124.5q0 71 -8 122t-55 51q-35 0 -49 -42t-14 -131v1zM55 661q0 25 17 38.5t37 13.5
q21 1 38.5 -12.5t17.5 -40.5q0 -29 -17 -43.5t-37 -14.5q-21 -1 -38.5 14t-17.5 44v1zM220 661q0 25 17 38.5t38 13.5q21 1 38.5 -12.5t17.5 -40.5q0 -29 -17 -43.5t-38 -14.5q-21 -1 -38.5 14t-17.5 44v1z" />
    <glyph glyph-name="Aacute" unicode="&#xf7;" 
 />
    <glyph glyph-name="OE" unicode="&#xf8;" horiz-adv-x="378" 
d="M55 79q-18 46 -21 97.5t-3 121.5q0 109 42 157t92 56q6 1 12 1.5t12 0.5q33 0 61 -12t41 -30l40 64l39 -31l-47 -79q17 -30 24 -83t7 -154q-4 -101 -51 -149t-105 -48h-6.5h-6.5q-26 2 -51.5 14t-46.5 33l-32 -54l-39 32l39 63v0zM142 126q8 -22 22 -34.5t30 -12.5h1.5
h1.5q22 1 41 33.5t19 108.5q0 19 -1 40t-4 45l-110 -180v0zM134 205l110 181q-2 18 -16.5 33t-33.5 15h-4t-4 -1q-20 -4 -37.5 -39t-17.5 -118q0 -16 1 -34t2 -38v1z" />
    <glyph glyph-name="ugrave" unicode="&#xf9;" horiz-adv-x="386" 
d="M39 504h103v-370q0 -34 17 -49t37 -16h1.5h1.5q20 0 36.5 12.5t16.5 35.5v387h102v-354q0 -84 -35 -125t-106 -41t-122.5 32.5t-51.5 132.5v355v0zM228 567l-102 134l63 47l87 -150l-48 -31v0z" />
    <glyph glyph-name="uacute" unicode="&#xfa;" horiz-adv-x="386" 
d="M39 504h103v-370q0 -34 17 -49t37 -16h1.5h1.5q20 0 36.5 12.5t16.5 35.5v387h102v-354q0 -84 -35 -125t-106 -41t-122.5 32.5t-51.5 132.5v355v0zM150 598l78 150l71 -47l-102 -126l-47 23v0z" />
    <glyph glyph-name="ucircumflex" unicode="&#xfb;" horiz-adv-x="386" 
d="M39 504h103v-370q0 -34 17 -49t37 -16h1.5h1.5q20 0 36.5 12.5t16.5 35.5v387h102v-354q0 -84 -35 -125t-106 -41t-122.5 32.5t-51.5 132.5v355v0zM197 685l-71 -94l-47 39l118 142l126 -134l-40 -40l-86 87v0z" />
    <glyph glyph-name="udieresis" unicode="&#xfc;" horiz-adv-x="386" 
d="M39 504h103v-370q0 -34 17 -49t37 -16h1.5h1.5q20 0 36.5 12.5t16.5 35.5v387h102v-354q0 -84 -35 -125t-106 -41t-122.5 32.5t-51.5 132.5v355v0zM55 661q0 25 17 38.5t37 13.5q21 1 38.5 -12.5t17.5 -40.5q0 -29 -17 -43.5t-37 -14.5q-21 -1 -38.5 14t-17.5 44v1z
M220 661q0 25 17 38.5t38 13.5q21 1 38.5 -12.5t17.5 -40.5q0 -29 -17 -43.5t-38 -14.5q-21 -1 -38.5 14t-17.5 44v1z" />
    <glyph glyph-name="yacute" unicode="&#xfd;" 
 />
    <glyph glyph-name="glyph237" unicode="&#xfe;" horiz-adv-x="378" 
 />
    <glyph glyph-name="Egrave" unicode="&#xff;" horiz-adv-x="370" 
d="M134 39l-134 465h110l71 -347l79 347h102l-205 -701h-102l79 236v0zM55 669q0 25 17 38.5t37 13.5q21 1 38.5 -12.5t17.5 -40.5q0 -29 -17 -43.5t-37 -14.5q-21 -1 -38.5 14t-17.5 44v1zM220 669q0 25 17 38.5t38 13.5q21 1 38.5 -12.5t17.5 -40.5q0 -29 -17 -43.5
t-38 -14.5q-21 -1 -38.5 14t-17.5 44v1z" />
    <glyph glyph-name="Abreve" unicode="&#x102;" 
 />
    <glyph glyph-name="abreve" unicode="&#x103;" 
 />
    <glyph glyph-name="Aogonek" unicode="&#x104;" 
 />
    <glyph glyph-name="aogonek" unicode="&#x105;" 
 />
    <glyph glyph-name="Cacute" unicode="&#x106;" 
 />
    <glyph glyph-name="cacute" unicode="&#x107;" 
 />
    <glyph glyph-name="Ccaron" unicode="&#x10c;" 
 />
    <glyph glyph-name="ccaron" unicode="&#x10d;" 
 />
    <glyph glyph-name="Dcaron" unicode="&#x10e;" 
 />
    <glyph glyph-name="dcaron" unicode="&#x10f;" 
 />
    <glyph glyph-name="Dcroat" unicode="&#x110;" 
 />
    <glyph glyph-name="dcroat" unicode="&#x111;" 
 />
    <glyph glyph-name="Eogonek" unicode="&#x118;" 
 />
    <glyph glyph-name="eogonek" unicode="&#x119;" 
 />
    <glyph glyph-name="Ecaron" unicode="&#x11a;" 
 />
    <glyph glyph-name="ecaron" unicode="&#x11b;" 
 />
    <glyph glyph-name="Gbreve" unicode="&#x11e;" 
 />
    <glyph glyph-name="gbreve" unicode="&#x11f;" 
 />
    <glyph glyph-name="Idotaccent" unicode="&#x130;" 
 />
    <glyph glyph-name="thorn" unicode="&#x131;" horiz-adv-x="181" 
d="M39 0v512h95v-512h-95v0z" />
    <glyph glyph-name="Lacute" unicode="&#x139;" 
 />
    <glyph glyph-name="lacute" unicode="&#x13a;" 
 />
    <glyph glyph-name="Lcaron" unicode="&#x13d;" 
 />
    <glyph glyph-name="lcaron" unicode="&#x13e;" 
 />
    <glyph glyph-name="Ldot" unicode="&#x13f;" 
 />
    <glyph glyph-name="ldot" unicode="&#x140;" 
 />
    <glyph glyph-name="glyph225" unicode="&#x141;" horiz-adv-x="500" 
 />
    <glyph glyph-name="glyph226" unicode="&#x142;" horiz-adv-x="500" 
 />
    <glyph glyph-name="Nacute" unicode="&#x143;" 
 />
    <glyph glyph-name="nacute" unicode="&#x144;" 
 />
    <glyph glyph-name="Ncaron" unicode="&#x147;" 
 />
    <glyph glyph-name="ncaron" unicode="&#x148;" 
 />
    <glyph glyph-name="Ohungarumlaut" unicode="&#x150;" 
 />
    <glyph glyph-name="ohungarumlaut" unicode="&#x151;" 
 />
    <glyph glyph-name="fi" unicode="&#x152;" horiz-adv-x="598" 
d="M331 55q-24 -33 -55 -50.5t-64 -17.5h-2h-2q-56 1 -105 62.5t-64 201.5q-1 22 -2 44.5t-1 45.5q0 22 0.5 44.5t1.5 45.5q2 45 6.5 89.5t10.5 84.5q12 86 51.5 124t83.5 42h4h4q39 0 74 -22t51 -57v64h260v-87h-166v-236h150v-87h-150v-259h174v-87h-260v55v0zM142 370
q0 -166 26.5 -225t67.5 -59q53 0 70 62.5t17 228.5q0 171 -24 235t-71 64q-53 0 -69.5 -82.5t-16.5 -224.5v1z" />
    <glyph glyph-name="fl" unicode="&#x153;" horiz-adv-x="583" 
d="M331 228q6 -89 23.5 -123.5t47.5 -34.5q29 0 46 19.5t17 66.5l70 1q0 -90 -39 -132t-87 -42h-2.5h-3.5q-36 2 -69 26t-51 69q0 -43 -31 -68t-72 -25q-5 0 -10 0.5t-10 1.5q-40 6 -75 40.5t-46 105.5q-4 27 -6.5 57.5t-2.5 64.5q0 26 2 54.5t7 59.5q9 68 47 102t81 38h3.5
h3.5q38 0 71 -23.5t46 -69.5q2 36 32.5 62.5t69.5 26.5q6 0 11.5 -0.5t11.5 -2.5q46 -10 85 -72.5t42 -202.5l-212 1v0zM118 244q3 -86 23 -130t43 -48h1.5h1.5q25 -1 45 43.5t20 133.5t-21 134.5t-47 45.5q-25 0 -45.5 -44.5t-20.5 -135.5v1zM331 291h126q0 65 -20 100.5
t-44 37.5h-1.5h-1.5q-22 0 -40.5 -30t-18.5 -92v-4v-4v-5v-4v1z" />
    <glyph glyph-name="Racute" unicode="&#x154;" 
 />
    <glyph glyph-name="racute" unicode="&#x155;" 
 />
    <glyph glyph-name="Rcaron" unicode="&#x158;" 
 />
    <glyph glyph-name="rcaron" unicode="&#x159;" 
 />
    <glyph glyph-name="Sacute" unicode="&#x15a;" 
 />
    <glyph glyph-name="sacute" unicode="&#x15b;" 
 />
    <glyph glyph-name="Scedilla" unicode="&#x15e;" 
 />
    <glyph glyph-name="scedilla" unicode="&#x15f;" 
 />
    <glyph glyph-name="glyph227" unicode="&#x160;" horiz-adv-x="500" 
 />
    <glyph glyph-name="glyph228" unicode="&#x161;" horiz-adv-x="500" 
 />
    <glyph glyph-name="Tcommaaccent" unicode="&#x162;" 
 />
    <glyph glyph-name="tcommaaccent" unicode="&#x163;" 
 />
    <glyph glyph-name="Tcaron" unicode="&#x164;" 
 />
    <glyph glyph-name="tcaron" unicode="&#x165;" 
 />
    <glyph glyph-name="Uring" unicode="&#x16e;" 
 />
    <glyph glyph-name="uring" unicode="&#x16f;" 
 />
    <glyph glyph-name="Uhungarumlaut" unicode="&#x170;" 
 />
    <glyph glyph-name="uhungarumlaut" unicode="&#x171;" 
 />
    <glyph glyph-name="Iacute" unicode="&#x178;" horiz-adv-x="500" 
 />
    <glyph glyph-name="Zacute" unicode="&#x179;" 
 />
    <glyph glyph-name="zacute" unicode="&#x17a;" 
 />
    <glyph glyph-name="Zdotaccent" unicode="&#x17b;" 
 />
    <glyph glyph-name="zdotaccent" unicode="&#x17c;" 
 />
    <glyph glyph-name="Zcaron" unicode="&#x17d;" 
 />
    <glyph glyph-name="zcaron" unicode="&#x17e;" 
 />
    <glyph glyph-name="quotedblright" unicode="&#x192;" horiz-adv-x="173" 
d="M87 0v827h78v-827h-78v0z" />
    <glyph glyph-name="uni02BA" unicode="&#x2ba;" horiz-adv-x="500" 
 />
    <glyph glyph-name="arrowright" unicode="&#x2c6;" horiz-adv-x="283" 
d="M16 630q0 46 20.5 77.5t50.5 31.5q10 0 21 -4.5t23 -10.5q2 -2 4.5 -3t4.5 -2q14 -8 27 -14.5t23 -6.5q9 0 15.5 7.5t7.5 25.5l55 1q0 -48 -15 -75.5t-56 -27.5q-16 0 -30 5.5t-27 12.5q-12 6 -22.5 11.5t-18.5 5.5q-7 0 -12.5 -7.5t-7.5 -27.5l-63 1v0z" />
    <glyph glyph-name="glyph224" unicode="&#x2c7;" horiz-adv-x="500" 
 />
    <glyph glyph-name="house" unicode="&#x2c9;" horiz-adv-x="500" 
 />
    <glyph glyph-name="endash" unicode="&#x2d8;" horiz-adv-x="283" 
d="M-16 764h55q0 -5 0.5 -9t1.5 -8q7 -26 33.5 -48.5t67.5 -22.5t68.5 23t33.5 64l55 1q0 -78 -42 -110.5t-107 -32.5h-10t-10 1q-55 3 -100 31.5t-45 109.5z" />
    <glyph glyph-name="sfthyphen" unicode="&#x2d9;" horiz-adv-x="500" 
 />
    <glyph glyph-name="filledbox" unicode="&#x2da;" horiz-adv-x="283" 
d="M55 654v1v2v1v2q0 37 24.5 57t53.5 22h1.5h1.5q32 0 58 -21t26 -65q0 -38 -25.5 -57.5t-56.5 -19.5h-1.5h-1.5q-30 0 -55 19.5t-25 57.5v1zM102 661q0 -21 11 -31.5t24 -10.5q14 -1 25 9.5t11 31.5q0 15 -10.5 22.5t-24.5 7.5q-13 0 -24.5 -7.5t-11.5 -22.5v1z" />
    <glyph glyph-name="glyph223" unicode="&#x2db;" horiz-adv-x="500" 
 />
    <glyph glyph-name="onehalf" unicode="&#x2dc;" horiz-adv-x="283" 
d="M134 677l-71 -94l-47 39l118 142l126 -134l-40 -39l-86 86v0z" />
    <glyph glyph-name="Gamma" unicode="&#x393;" 
 />
    <glyph glyph-name="Theta" unicode="&#x398;" 
 />
    <glyph glyph-name="exclamdown" unicode="&#x3a3;" 
 />
    <glyph glyph-name="Phi" unicode="&#x3a6;" 
 />
    <glyph glyph-name="Atilde" unicode="&#x3a9;" 
 />
    <glyph glyph-name="alpha" unicode="&#x3b1;" 
 />
    <glyph glyph-name="delta" unicode="&#x3b4;" 
 />
    <glyph glyph-name="epsilon" unicode="&#x3b5;" 
 />
    <glyph glyph-name="guillemotleft" unicode="&#x3c0;" 
 />
    <glyph glyph-name="sigma" unicode="&#x3c3;" 
 />
    <glyph glyph-name="tau" unicode="&#x3c4;" 
 />
    <glyph glyph-name="phi" unicode="&#x3c6;" 
 />
    <glyph glyph-name="glyph259" unicode="&#x2013;" horiz-adv-x="504" 
d="M-8 213v78h512v-78h-512v0z" />
    <glyph glyph-name="periodcentered" unicode="&#x2014;" horiz-adv-x="1000" 
d="M-8 220v79h1000h8v-79h-1000h-8v0z" />
    <glyph glyph-name="underscoredbl" unicode="&#x2017;" 
 />
    <glyph glyph-name="Acircumflex" unicode="&#x2018;" horiz-adv-x="213" 
d="M31 504l95 268l55 -16l-71 -276l-79 24v0z" />
    <glyph glyph-name="Ecircumflex" unicode="&#x2019;" horiz-adv-x="213" 
d="M39 496l63 276l87 -32l-102 -268l-48 24v0z" />
    <glyph glyph-name="Ugrave" unicode="&#x201a;" 
 />
    <glyph glyph-name="quotedblbase" unicode="&#x201c;" horiz-adv-x="346" 
d="M16 512l94 268l55 -16l-71 -276l-78 24v0zM150 512l94 268l55 -16l-71 -276l-78 24v0z" />
    <glyph glyph-name="perthousand" unicode="&#x201d;" horiz-adv-x="346" 
d="M39 496l63 276l87 -32l-102 -268l-48 24v0zM181 496l63 276l87 -32l-103 -268l-47 24v0z" />
    <glyph glyph-name="dotlessi" unicode="&#x201e;" horiz-adv-x="346" 
d="M31 -165l63 275l87 -31l-102 -268l-48 24v0zM173 -165l63 275l87 -31l-103 -268l-47 24v0z" />
    <glyph glyph-name="dagger" unicode="&#x2020;" horiz-adv-x="362" 
d="M126 -134v551h-95v87h95v252h102v-252h95v-87h-95v-551h-102v0z" />
    <glyph glyph-name="Uacute" unicode="&#x2021;" horiz-adv-x="362" 
d="M134 -134v315h-103v87h103v173h-103v87h103v228h102v-228h103v-87h-103v-173h103v-87h-103v-315h-102v0z" />
    <glyph glyph-name="glyph262" unicode="&#x2022;" horiz-adv-x="402" 
d="M39 244q0 28 20.5 44t45.5 17h1.5h1.5q25 0 45 -15t20 -47t-20.5 -48.5t-45.5 -16.5q-25 -1 -46.5 15.5t-21.5 49.5v1z" />
    <glyph glyph-name="fraction" unicode="&#x2026;" horiz-adv-x="1000" 
d="M94 39q0 28 20.5 44t45.5 17h1.5h1.5q25 0 45 -15t20 -47t-20.5 -47.5t-45.5 -15.5q-25 -1 -46.5 15t-21.5 48v1zM425 39q0 28 20.5 44t45.5 17h1.5h1.5q25 0 45 -15t20 -47t-20.5 -47.5t-45.5 -15.5q-25 -1 -46.5 15t-21.5 48v1zM756 39q0 28 20.5 44t45.5 17h1.5h1.5
q25 0 45 -15t20 -47t-20.5 -47.5t-45.5 -15.5q-25 -1 -46.5 15t-21.5 48v1z" />
    <glyph glyph-name="circumflex" unicode="&#x2030;" horiz-adv-x="819" 
d="M299 189q0 88 29.5 126t65.5 38q53 0 81.5 -35t28.5 -130q1 -8 1 -15.5v-15.5q0 -94 -29.5 -129.5t-73.5 -35.5q-47 0 -75 39t-28 157v1zM402 299q-21 -1 -33 -41t-12 -88v-1.5v-1.5q0 -46 11 -83.5t34 -37.5q25 0 36 35t11 79v5.5v5.5q-2 47 -14 87t-33 40v1zM559 189
q0 88 29.5 126t65.5 38q53 0 81.5 -35t28.5 -130q1 -8 1 -15.5v-14.5q0 -94 -30 -130t-74 -36q-47 0 -74.5 39t-27.5 157v1zM661 299q-20 -1 -31.5 -40.5t-12.5 -86.5v-3.5v-2.5q0 -46 10.5 -83t33.5 -37q25 0 36.5 35t11.5 79v5.5v5.5q-2 47 -14.5 87t-33.5 40v1zM47 0
l378 764h71l-378 -764h-71v0zM47 606q0 88 29.5 126.5t65.5 38.5q53 0 81.5 -35.5t28.5 -130.5q1 -8 1 -15.5v-15.5q0 -94 -29.5 -130t-73.5 -36q-47 0 -75 39.5t-28 157.5v1zM150 717q-21 -1 -33 -41t-12 -88v-1.5v-1.5q0 -46 11 -83.5t34 -37.5q25 0 36 35t11 79v5.5v5.5
q-2 47 -14 87t-33 40v1z" />
    <glyph glyph-name="Igrave" unicode="&#x2039;" horiz-adv-x="236" 
d="M87 260l102 -197l-47 -24l-126 221l134 220l47 -31l-110 -189v0z" />
    <glyph glyph-name="Oacute" unicode="&#x203a;" horiz-adv-x="236" 
d="M150 260l-119 189l48 31l134 -220l-119 -229l-55 32l111 197v0z" />
    <glyph glyph-name="exclamdbl" unicode="&#x203c;" 
 />
    <glyph glyph-name="uni207F" unicode="&#x207f;" 
 />
    <glyph glyph-name="franc" unicode="&#x20a3;" 
 />
    <glyph glyph-name="peseta" unicode="&#x20a7;" 
 />
    <glyph glyph-name="trademark" unicode="&#x2122;" horiz-adv-x="748" 
d="M102 339v362h-110v63h284v-63h-111v-362h-63v0zM386 701v-362h-55v425h94l103 -299l102 299h87v-425h-56v362l-118 -362h-39l-118 362v0z" />
    <glyph glyph-name="arrowleft" unicode="&#x2190;" 
 />
    <glyph glyph-name="arrowup" unicode="&#x2191;" 
 />
    <glyph glyph-name="glyph257" unicode="&#x2192;" horiz-adv-x="500" 
 />
    <glyph glyph-name="arrowdown" unicode="&#x2193;" 
 />
    <glyph glyph-name="arrowboth" unicode="&#x2194;" 
 />
    <glyph glyph-name="arrowupdn" unicode="&#x2195;" 
 />
    <glyph glyph-name="arrowupdnbse" unicode="&#x21a8;" 
 />
    <glyph glyph-name="questiondown" unicode="&#x2202;" 
 />
    <glyph glyph-name="quoteright" unicode="&#x2206;" 
 />
    <glyph glyph-name="florin" unicode="&#x220f;" 
 />
    <glyph glyph-name="minus" unicode="&#x2212;" 
 />
    <glyph glyph-name="Icircumflex" unicode="&#x2215;" horiz-adv-x="500" 
 />
    <glyph glyph-name="Ucircumflex" unicode="&#x2219;" 
d="M16 378q0 96 58 143.5t128 47.5q72 0 132 -48.5t60 -143.5q0 -94 -57.5 -141.5t-127.5 -47.5h-1.5h-1.5q-70 1 -128.5 48.5t-61.5 140.5v1z" />
    <glyph glyph-name="quotedblleft" unicode="&#x221a;" 
 />
    <glyph glyph-name="yen" unicode="&#x221e;" 
 />
    <glyph glyph-name="orthogonal" unicode="&#x221f;" 
 />
    <glyph glyph-name="intersection" unicode="&#x2229;" 
 />
    <glyph glyph-name="guillemotright" unicode="&#x222b;" 
 />
    <glyph glyph-name="quoteleft" unicode="&#x2248;" 
 />
    <glyph glyph-name="AE" unicode="&#x2260;" 
 />
    <glyph glyph-name="equivalence" unicode="&#x2261;" 
 />
    <glyph glyph-name="ordfeminine" unicode="&#x2264;" 
 />
    <glyph glyph-name="ordmasculine" unicode="&#x2265;" 
 />
    <glyph glyph-name="glyph258" unicode="&#x2302;" 
 />
    <glyph glyph-name="revlogicalnot" unicode="&#x2310;" 
 />
    <glyph glyph-name="integraltp" unicode="&#x2320;" 
 />
    <glyph glyph-name="integralbt" unicode="&#x2321;" 
 />
    <glyph glyph-name="SF100000" unicode="&#x2500;" 
 />
    <glyph glyph-name="SF110000" unicode="&#x2502;" 
 />
    <glyph glyph-name="SF010000" unicode="&#x250c;" 
 />
    <glyph glyph-name="SF030000" unicode="&#x2510;" 
 />
    <glyph glyph-name="SF020000" unicode="&#x2514;" 
 />
    <glyph glyph-name="SF040000" unicode="&#x2518;" 
 />
    <glyph glyph-name="SF080000" unicode="&#x251c;" 
 />
    <glyph glyph-name="SF090000" unicode="&#x2524;" 
 />
    <glyph glyph-name="SF060000" unicode="&#x252c;" 
 />
    <glyph glyph-name="SF070000" unicode="&#x2534;" 
 />
    <glyph glyph-name="SF050000" unicode="&#x253c;" 
 />
    <glyph glyph-name="SF430000" unicode="&#x2550;" 
 />
    <glyph glyph-name="SF240000" unicode="&#x2551;" 
 />
    <glyph glyph-name="SF510000" unicode="&#x2552;" 
 />
    <glyph glyph-name="SF520000" unicode="&#x2553;" 
 />
    <glyph glyph-name="SF390000" unicode="&#x2554;" 
 />
    <glyph glyph-name="SF220000" unicode="&#x2555;" 
 />
    <glyph glyph-name="SF210000" unicode="&#x2556;" 
 />
    <glyph glyph-name="SF250000" unicode="&#x2557;" 
 />
    <glyph glyph-name="SF500000" unicode="&#x2558;" 
 />
    <glyph glyph-name="SF490000" unicode="&#x2559;" 
 />
    <glyph glyph-name="SF380000" unicode="&#x255a;" 
 />
    <glyph glyph-name="SF280000" unicode="&#x255b;" 
 />
    <glyph glyph-name="SF270000" unicode="&#x255c;" 
 />
    <glyph glyph-name="SF260000" unicode="&#x255d;" 
 />
    <glyph glyph-name="SF360000" unicode="&#x255e;" 
 />
    <glyph glyph-name="SF370000" unicode="&#x255f;" 
 />
    <glyph glyph-name="SF420000" unicode="&#x2560;" 
 />
    <glyph glyph-name="SF190000" unicode="&#x2561;" 
 />
    <glyph glyph-name="SF200000" unicode="&#x2562;" 
 />
    <glyph glyph-name="SF230000" unicode="&#x2563;" 
 />
    <glyph glyph-name="SF470000" unicode="&#x2564;" 
 />
    <glyph glyph-name="SF480000" unicode="&#x2565;" 
 />
    <glyph glyph-name="SF410000" unicode="&#x2566;" 
 />
    <glyph glyph-name="SF450000" unicode="&#x2567;" 
 />
    <glyph glyph-name="SF460000" unicode="&#x2568;" 
 />
    <glyph glyph-name="SF400000" unicode="&#x2569;" 
 />
    <glyph glyph-name="SF540000" unicode="&#x256a;" 
 />
    <glyph glyph-name="SF530000" unicode="&#x256b;" 
 />
    <glyph glyph-name="SF440000" unicode="&#x256c;" 
 />
    <glyph glyph-name="upblock" unicode="&#x2580;" 
 />
    <glyph glyph-name="dnblock" unicode="&#x2584;" 
 />
    <glyph glyph-name="block" unicode="&#x2588;" 
 />
    <glyph glyph-name="lfblock" unicode="&#x258c;" 
 />
    <glyph glyph-name="rtblock" unicode="&#x2590;" 
 />
    <glyph glyph-name="ltshade" unicode="&#x2591;" 
 />
    <glyph glyph-name="shade" unicode="&#x2592;" 
 />
    <glyph glyph-name="dkshade" unicode="&#x2593;" 
 />
    <glyph glyph-name="glyph261" unicode="&#x25a0;" horiz-adv-x="500" 
 />
    <glyph glyph-name="filledrect" unicode="&#x25ac;" 
 />
    <glyph glyph-name="triagup" unicode="&#x25b2;" 
 />
    <glyph glyph-name="triagrt" unicode="&#x25ba;" 
 />
    <glyph glyph-name="triagdn" unicode="&#x25bc;" 
 />
    <glyph glyph-name="triaglf" unicode="&#x25c4;" 
 />
    <glyph glyph-name="Edieresis" unicode="&#x25ca;" 
 />
    <glyph glyph-name="circle" unicode="&#x25cb;" 
 />
    <glyph glyph-name="invbullet" unicode="&#x25d8;" 
 />
    <glyph glyph-name="invcircle" unicode="&#x25d9;" 
 />
    <glyph glyph-name="smileface" unicode="&#x263a;" 
 />
    <glyph glyph-name="invsmileface" unicode="&#x263b;" 
 />
    <glyph glyph-name="sun" unicode="&#x263c;" 
 />
    <glyph glyph-name="female" unicode="&#x2640;" 
 />
    <glyph glyph-name="male" unicode="&#x2642;" 
 />
    <glyph glyph-name="spade" unicode="&#x2660;" 
 />
    <glyph glyph-name="club" unicode="&#x2663;" 
 />
    <glyph glyph-name="heart" unicode="&#x2665;" 
 />
    <glyph glyph-name="diamond" unicode="&#x2666;" 
 />
    <glyph glyph-name="musicalnote" unicode="&#x266a;" 
 />
    <glyph glyph-name="musicalnotedbl" unicode="&#x266b;" 
 />
    <glyph glyph-name="Scaron" unicode="&#xf000;" 
 />
    <glyph glyph-name="Ocircumflex" unicode="&#xf001;" horiz-adv-x="457" 
d="M63 0v433h-47v71h47v142q0 118 34 152t79 34q8 0 16.5 -0.5t17.5 -1.5q3 -1 6 -1t5 -1q6 0 12 -0.5t11 -1.5v-109q-12 8 -23 12.5t-20 4.5q-21 0 -32.5 -25.5t-11.5 -79.5v-125h79v-71h-79v-433h-94v0zM307 0v496h95v-496h-95v0zM291 654q0 28 20.5 43.5t45.5 17.5h1.5
h1.5q25 0 45 -15t20 -47t-20.5 -48.5t-45.5 -16.5q-25 -1 -46.5 15.5t-21.5 49.5v1z" />
    <glyph glyph-name="Ograve" unicode="&#xf002;" horiz-adv-x="449" 
d="M63 0v433h-47v71h47v142q0 118 34 152t79 34q8 0 16.5 -0.5t17.5 -1.5q3 -1 6 -1t5 -1q6 0 12 -0.5t11 -1.5v-109q-12 8 -23 12.5t-20 4.5q-21 0 -32.5 -25.5t-11.5 -79.5v-125h79v-71h-79v-433h-94v0zM307 0v827h102v-827h-102v0z" />
    <glyph glyph-name="degree" horiz-adv-x="500" 
 />
    <glyph glyph-name="bullet" horiz-adv-x="402" 
d="M39 244q0 28 20.5 44t45.5 17h1.5h1.5q25 0 45 -15t20 -47t-20.5 -48.5t-45.5 -16.5q-25 -1 -46.5 15.5t-21.5 49.5v1z" />
    <glyph glyph-name="daggerdbl" horiz-adv-x="504" 
d="M-8 213v78h512v-78h-512v0z" />
    <hkern u1="&#x20;" u2="&#x2e;" k="55" />
    <hkern u1="&#x20;" u2="&#x2c;" k="63" />
    <hkern u1="&#x27;" u2="s" k="55" />
    <hkern u1="&#x27;" u2="&#x27;" k="16" />
    <hkern u1="A" u2="y" k="16" />
    <hkern u1="A" u2="w" k="16" />
    <hkern u1="A" u2="v" k="16" />
    <hkern u1="A" u2="Y" k="55" />
    <hkern u1="A" u2="W" k="16" />
    <hkern u1="A" u2="V" k="39" />
    <hkern u1="A" u2="T" k="39" />
    <hkern u1="A" u2="&#x27;" k="55" />
    <hkern u1="F" u2="A" k="39" />
    <hkern u1="F" u2="&#x2e;" k="110" />
    <hkern u1="F" u2="&#x2c;" k="110" />
    <hkern u1="L" u2="y" k="39" />
    <hkern u1="L" u2="Y" k="71" />
    <hkern u1="L" u2="W" k="47" />
    <hkern u1="L" u2="V" k="55" />
    <hkern u1="L" u2="T" k="55" />
    <hkern u1="L" u2="&#x27;" k="94" />
    <hkern u1="P" u2="A" k="31" />
    <hkern u1="P" u2="&#x2e;" k="126" />
    <hkern u1="P" u2="&#x2c;" k="126" />
    <hkern u1="R" u2="Y" k="16" />
    <hkern u1="R" u2="T" k="16" />
    <hkern u1="T" u2="y" k="47" />
    <hkern u1="T" u2="w" k="47" />
    <hkern u1="T" u2="u" k="39" />
    <hkern u1="T" u2="s" k="47" />
    <hkern u1="T" u2="r" k="39" />
    <hkern u1="T" u2="o" k="47" />
    <hkern u1="T" u2="e" k="47" />
    <hkern u1="T" u2="c" k="47" />
    <hkern u1="T" u2="a" k="47" />
    <hkern u1="T" u2="A" k="39" />
    <hkern u1="T" u2="&#x3b;" k="39" />
    <hkern u1="T" u2="&#x3a;" k="39" />
    <hkern u1="T" u2="&#x2e;" k="71" />
    <hkern u1="T" u2="&#x2d;" k="39" />
    <hkern u1="T" u2="&#x2c;" k="47" />
    <hkern u1="V" u2="u" k="16" />
    <hkern u1="V" u2="r" k="16" />
    <hkern u1="V" u2="o" k="16" />
    <hkern u1="V" u2="e" k="16" />
    <hkern u1="V" u2="a" k="16" />
    <hkern u1="V" u2="A" k="39" />
    <hkern u1="V" u2="&#x3b;" k="16" />
    <hkern u1="V" u2="&#x3a;" k="16" />
    <hkern u1="V" u2="&#x2e;" k="94" />
    <hkern u1="V" u2="&#x2d;" k="16" />
    <hkern u1="V" u2="&#x2c;" k="94" />
    <hkern u1="W" u2="o" k="16" />
    <hkern u1="W" u2="e" k="16" />
    <hkern u1="W" u2="a" k="16" />
    <hkern u1="W" u2="A" k="16" />
    <hkern u1="W" u2="&#x3b;" k="16" />
    <hkern u1="W" u2="&#x3a;" k="16" />
    <hkern u1="W" u2="&#x2e;" k="71" />
    <hkern u1="W" u2="&#x2d;" k="16" />
    <hkern u1="W" u2="&#x2c;" k="71" />
    <hkern u1="Y" u2="v" k="16" />
    <hkern u1="Y" u2="u" k="39" />
    <hkern u1="Y" u2="q" k="55" />
    <hkern u1="Y" u2="p" k="39" />
    <hkern u1="Y" u2="o" k="55" />
    <hkern u1="Y" u2="e" k="55" />
    <hkern u1="Y" u2="a" k="55" />
    <hkern u1="Y" u2="A" k="55" />
    <hkern u1="Y" u2="&#x3b;" k="39" />
    <hkern u1="Y" u2="&#x3a;" k="39" />
    <hkern u1="Y" u2="&#x2e;" k="71" />
    <hkern u1="Y" u2="&#x2d;" k="71" />
    <hkern u1="Y" u2="&#x2c;" k="71" />
    <hkern u1="`" u2="`" k="16" />
    <hkern u1="f" u2="&#x27;" k="-16" />
    <hkern u1="r" u2="z" k="-24" />
    <hkern u1="r" u2="y" k="-16" />
    <hkern u1="r" u2="x" k="-24" />
    <hkern u1="r" u2="w" k="-16" />
    <hkern u1="r" u2="v" k="-16" />
    <hkern u1="r" u2="&#x2e;" k="71" />
    <hkern u1="r" u2="&#x2d;" k="39" />
    <hkern u1="r" u2="&#x2c;" k="71" />
    <hkern u1="v" u2="&#x2e;" k="55" />
    <hkern u1="v" u2="&#x2c;" k="63" />
    <hkern u1="w" u2="&#x2e;" k="24" />
    <hkern u1="w" u2="&#x2c;" k="39" />
    <hkern u1="y" u2="&#x2e;" k="55" />
    <hkern u1="y" u2="&#x2c;" k="63" />
    <hkern u1="&#xc0;" u2="y" k="16" />
    <hkern u1="&#xc0;" u2="w" k="16" />
    <hkern u1="&#xc0;" u2="v" k="16" />
    <hkern u1="&#xc0;" u2="Y" k="55" />
    <hkern u1="&#xc0;" u2="W" k="16" />
    <hkern u1="&#xc0;" u2="V" k="39" />
    <hkern u1="&#xc0;" u2="T" k="39" />
    <hkern u1="&#xc0;" u2="&#x27;" k="55" />
    <hkern u1="&#xc1;" u2="y" k="16" />
    <hkern u1="&#xc1;" u2="w" k="16" />
    <hkern u1="&#xc1;" u2="v" k="16" />
    <hkern u1="&#xc1;" u2="Y" k="55" />
    <hkern u1="&#xc1;" u2="W" k="16" />
    <hkern u1="&#xc1;" u2="V" k="39" />
    <hkern u1="&#xc1;" u2="T" k="39" />
    <hkern u1="&#xc1;" u2="&#x27;" k="55" />
    <hkern u1="&#xc2;" u2="y" k="16" />
    <hkern u1="&#xc2;" u2="w" k="16" />
    <hkern u1="&#xc2;" u2="v" k="16" />
    <hkern u1="&#xc2;" u2="Y" k="55" />
    <hkern u1="&#xc2;" u2="W" k="16" />
    <hkern u1="&#xc2;" u2="V" k="39" />
    <hkern u1="&#xc2;" u2="T" k="39" />
    <hkern u1="&#xc2;" u2="&#x27;" k="55" />
    <hkern u1="&#xc3;" u2="y" k="16" />
    <hkern u1="&#xc3;" u2="w" k="16" />
    <hkern u1="&#xc3;" u2="v" k="16" />
    <hkern u1="&#xc3;" u2="Y" k="55" />
    <hkern u1="&#xc3;" u2="W" k="16" />
    <hkern u1="&#xc3;" u2="V" k="39" />
    <hkern u1="&#xc3;" u2="T" k="39" />
    <hkern u1="&#xc3;" u2="&#x27;" k="55" />
    <hkern u1="&#xc4;" u2="y" k="16" />
    <hkern u1="&#xc4;" u2="w" k="16" />
    <hkern u1="&#xc4;" u2="v" k="16" />
    <hkern u1="&#xc4;" u2="Y" k="55" />
    <hkern u1="&#xc4;" u2="W" k="16" />
    <hkern u1="&#xc4;" u2="V" k="39" />
    <hkern u1="&#xc4;" u2="T" k="39" />
    <hkern u1="&#xc4;" u2="&#x27;" k="55" />
    <hkern u1="&#xc5;" u2="y" k="16" />
    <hkern u1="&#xc5;" u2="w" k="16" />
    <hkern u1="&#xc5;" u2="v" k="16" />
    <hkern u1="&#xc5;" u2="Y" k="55" />
    <hkern u1="&#xc5;" u2="W" k="16" />
    <hkern u1="&#xc5;" u2="V" k="39" />
    <hkern u1="&#xc5;" u2="T" k="39" />
    <hkern u1="&#xc5;" u2="&#x27;" k="55" />
  </font>
</defs></svg>
